WARNING: File "pprint_elim_cdef/refs1.out.cif": Semantic warning at line 10, column 3: Duplicate state invariant.
WARNING: File "pprint_elim_cdef/refs1.out.cif": Semantic warning at line 16, column 10: Type "int[3..3]" allows only one value.
WARNING: File "pprint_elim_cdef/refs1.out.cif": Semantic warning at line 17, column 10: Type "int[2..2]" allows only one value.
WARNING: File "pprint_elim_cdef/refs1.out.cif": Semantic warning at line 18, column 10: Type "int[3..3]" allows only one value.
WARNING: File "pprint_elim_cdef/refs1.out.cif": Semantic warning at line 25, column 3: Duplicate state invariant.
