WARNING: File "event_based/lang_equiv/non_initial.cif": Semantic warning at line 19, column 11: Automaton "Y" has no initial location.
ERROR: Failed to apply language equivalence check for CIF file "event_based/lang_equiv/non_initial.cif".
CAUSE: Automaton "Y" has no initial location.
