Reading CIF file "datasynth/enums.cif".
Preprocessing CIF specification.
Converting CIF specification to internal format.

CIF variables and location pointers:
  Nr     Kind               Type  Name    Group  BDD vars  CIF values  BDD values  Values used
  -----  -----------------  ----  ------  -----  --------  ----------  ----------  -----------
  1      discrete variable  g.E1  g.p.x0  0      3 * 2     5 * 2       8 * 2       ~63%
  2      discrete variable  g.E1  g.p.x1  1      3 * 2     5 * 2       8 * 2       ~63%
  3      discrete variable  g.E1  g.p.x2  2      3 * 2     5 * 2       8 * 2       ~63%
  4      discrete variable  g.E1  g.p.x3  3      3 * 2     5 * 2       8 * 2       ~63%
  5      discrete variable  g.E1  g.p.x4  4      3 * 2     5 * 2       8 * 2       ~63%
  6      discrete variable  g.E1  g.p.x5  5      3 * 2     5 * 2       8 * 2       ~63%
  7      discrete variable  g.E2  g.p.x6  6      2 * 2     3 * 2       4 * 2       75%
  -----  -----------------  ----  ------  -----  --------  ----------  ----------  -----------
  Total                                   7      40        66          104         ~63%

Applying variable ordering:
  Applying 4 orderers, sequentially:
    Applying model variable order:
      Effect: both

    Applying DCSH algorithm:
      Metric: wes
      Relations: legacy
      Effect: var-order
      Number of hyper-edges: 12

      Applying Weighted Cuthill-McKee algorithm:
        Node finder: george-liu
        Relations: legacy
        Effect: var-order
        Number of graph edges: 0

        Skipping algorithm: no graph edges.

      Found new best variable order.

      Applying Sloan algorithm:
        Relations: legacy
        Effect: var-order
        Number of graph edges: 0

        Skipping algorithm: no graph edges.

      Applying 2 orderers, sequentially:
        Applying Weighted Cuthill-McKee algorithm:
          Node finder: george-liu
          Relations: legacy
          Effect: var-order
          Number of graph edges: 0

          Skipping algorithm: no graph edges.

        Reversing the variable order:
          Relations: legacy
          Effect: var-order
          Number of hyper-edges: 12

          Total span:   0 (total)   0.00 (avg/edge) / WES:   0.061224 (total)   0.005102 (avg/edge) [before]
          Total span:   0 (total)   0.00 (avg/edge) / WES:   0.061224 (total)   0.005102 (avg/edge) [reversed]

      Applying 2 orderers, sequentially:
        Applying Sloan algorithm:
          Relations: legacy
          Effect: var-order
          Number of graph edges: 0

          Skipping algorithm: no graph edges.

        Reversing the variable order:
          Relations: legacy
          Effect: var-order
          Number of hyper-edges: 12

          Total span:   0 (total)   0.00 (avg/edge) / WES:   0.061224 (total)   0.005102 (avg/edge) [before]
          Total span:   0 (total)   0.00 (avg/edge) / WES:   0.061224 (total)   0.005102 (avg/edge) [reversed]

    Applying FORCE algorithm:
      Metric: total-span
      Relations: linearized
      Effect: var-order
      Number of hyper-edges: 6
      Maximum number of iterations: 20

      Total span:   0 (total)   0.00 (avg/edge) / WES:   0.081633 (total)   0.013605 (avg/edge) [before]
      Total span:   0 (total)   0.00 (avg/edge) / WES:   0.013605 (total)   0.002268 (avg/edge) [iteration 1]
      Total span:   0 (total)   0.00 (avg/edge) / WES:   0.081633 (total)   0.013605 (avg/edge) [after]

    Applying sliding window algorithm:
      Size: 4
      Metric: total-span
      Relations: linearized
      Effect: var-order
      Number of hyper-edges: 6
      Window length: 4

      Total span:   0 (total)   0.00 (avg/edge) / WES:   0.081633 (total)   0.013605 (avg/edge) [before]
      Total span:   0 (total)   0.00 (avg/edge) / WES:   0.081633 (total)   0.013605 (avg/edge) [after]

Variable order unchanged.

Starting data-based synthesis.

Invariant (components state plant inv):      true
Invariant (locations state plant invariant): true
Invariant (system state plant invariant):    true

Invariant (components state req invariant):  true
Invariant (locations state req invariant):   true
Invariant (system state req invariant):      true

Initial   (discrete variable 0):             g.p.x0 = g.A
Initial   (discrete variable 1):             g.p.x1 = g.A
Initial   (discrete variable 2):             g.p.x2 = g.B
Initial   (discrete variable 3):             g.p.x3 != g.E and g.p.x3 != g.C
Initial   (discrete variable 4):             true
Initial   (discrete variable 5):             true
Initial   (discrete variable 6):             g.p.x6 = g.G
Initial   (discrete variables):              g.p.x0 = g.A and (g.p.x1 = g.A and g.p.x2 = g.B) and (g.p.x3 = g.A and (g.p.x4 = g.A or g.p.x4 = g.E) and ((g.p.x5 = g.A or g.p.x5 = g.E) and g.p.x6 = g.G)) or g.p.x0 = g.A and (g.p.x1 = g.A and g.p.x2 = g.B) and (g.p.x3 = g.A and (g.p.x4 = g.A or g.p.x4 = g.E) and (g.p.x5 = g.C and g.p.x6 = g.G)) or (g.p.x0 = g.A and (g.p.x1 = g.A and g.p.x2 = g.B) and (g.p.x3 = g.A and (g.p.x4 = g.A or g.p.x4 = g.E) and ((g.p.x5 = g.B or g.p.x5 = g.D) and g.p.x6 = g.G)) or g.p.x0 = g.A and (g.p.x1 = g.A and g.p.x2 = g.B) and (g.p.x3 = g.A and g.p.x4 = g.C and ((g.p.x5 = g.A or g.p.x5 = g.E) and g.p.x6 = g.G))) or (g.p.x0 = g.A and (g.p.x1 = g.A and g.p.x2 = g.B) and (g.p.x3 = g.A and g.p.x4 = g.C and (g.p.x5 = g.C and g.p.x6 = g.G)) or g.p.x0 = g.A and (g.p.x1 = g.A and g.p.x2 = g.B) and (g.p.x3 = g.A and g.p.x4 = g.C and ((g.p.x5 = g.B or g.p.x5 = g.D) and g.p.x6 = g.G)) or (g.p.x0 = g.A and (g.p.x1 = g.A and g.p.x2 = g.B) and (g.p.x3 = g.A and (g.p.x4 = g.B or g.p.x4 = g.D) and ((g.p.x5 = g.A or g.p.x5 = g.E) and g.p.x6 = g.G)) or (g.p.x0 = g.A and (g.p.x1 = g.A and g.p.x2 = g.B) and (g.p.x3 = g.A and (g.p.x4 = g.B or g.p.x4 = g.D) and (g.p.x5 = g.C and g.p.x6 = g.G)) or g.p.x0 = g.A and (g.p.x1 = g.A and g.p.x2 = g.B) and (g.p.x3 = g.A and (g.p.x4 = g.B or g.p.x4 = g.D) and ((g.p.x5 = g.B or g.p.x5 = g.D) and g.p.x6 = g.G))))) or (g.p.x0 = g.A and (g.p.x1 = g.A and g.p.x2 = g.B) and ((g.p.x3 = g.B or g.p.x3 = g.D) and (g.p.x4 = g.A or g.p.x4 = g.E) and ((g.p.x5 = g.A or g.p.x5 = g.E) and g.p.x6 = g.G)) or g.p.x0 = g.A and (g.p.x1 = g.A and g.p.x2 = g.B) and ((g.p.x3 = g.B or g.p.x3 = g.D) and (g.p.x4 = g.A or g.p.x4 = g.E) and (g.p.x5 = g.C and g.p.x6 = g.G)) or (g.p.x0 = g.A and (g.p.x1 = g.A and g.p.x2 = g.B) and ((g.p.x3 = g.B or g.p.x3 = g.D) and (g.p.x4 = g.A or g.p.x4 = g.E) and ((g.p.x5 = g.B or g.p.x5 = g.D) and g.p.x6 = g.G)) or g.p.x0 = g.A and (g.p.x1 = g.A and g.p.x2 = g.B) and ((g.p.x3 = g.B or g.p.x3 = g.D) and g.p.x4 = g.C and ((g.p.x5 = g.A or g.p.x5 = g.E) and g.p.x6 = g.G))) or (g.p.x0 = g.A and (g.p.x1 = g.A and g.p.x2 = g.B) and ((g.p.x3 = g.B or g.p.x3 = g.D) and g.p.x4 = g.C and (g.p.x5 = g.C and g.p.x6 = g.G)) or g.p.x0 = g.A and (g.p.x1 = g.A and g.p.x2 = g.B) and ((g.p.x3 = g.B or g.p.x3 = g.D) and g.p.x4 = g.C and ((g.p.x5 = g.B or g.p.x5 = g.D) and g.p.x6 = g.G)) or (g.p.x0 = g.A and (g.p.x1 = g.A and g.p.x2 = g.B) and ((g.p.x3 = g.B or g.p.x3 = g.D) and (g.p.x4 = g.B or g.p.x4 = g.D) and ((g.p.x5 = g.A or g.p.x5 = g.E) and g.p.x6 = g.G)) or (g.p.x0 = g.A and (g.p.x1 = g.A and g.p.x2 = g.B) and ((g.p.x3 = g.B or g.p.x3 = g.D) and (g.p.x4 = g.B or g.p.x4 = g.D) and (g.p.x5 = g.C and g.p.x6 = g.G)) or g.p.x0 = g.A and (g.p.x1 = g.A and g.p.x2 = g.B) and ((g.p.x3 = g.B or g.p.x3 = g.D) and (g.p.x4 = g.B or g.p.x4 = g.D) and ((g.p.x5 = g.B or g.p.x5 = g.D) and g.p.x6 = g.G))))))
Initial   (components init predicate):       true
Initial   (aut/locs init predicate):         true
Initial   (auts/locs init predicate):        true
Initial   (uncontrolled system):             g.p.x0 = g.A and (g.p.x1 = g.A and g.p.x2 = g.B) and (g.p.x3 = g.A and (g.p.x4 = g.A or g.p.x4 = g.E) and ((g.p.x5 = g.A or g.p.x5 = g.E) and g.p.x6 = g.G)) or g.p.x0 = g.A and (g.p.x1 = g.A and g.p.x2 = g.B) and (g.p.x3 = g.A and (g.p.x4 = g.A or g.p.x4 = g.E) and (g.p.x5 = g.C and g.p.x6 = g.G)) or (g.p.x0 = g.A and (g.p.x1 = g.A and g.p.x2 = g.B) and (g.p.x3 = g.A and (g.p.x4 = g.A or g.p.x4 = g.E) and ((g.p.x5 = g.B or g.p.x5 = g.D) and g.p.x6 = g.G)) or g.p.x0 = g.A and (g.p.x1 = g.A and g.p.x2 = g.B) and (g.p.x3 = g.A and g.p.x4 = g.C and ((g.p.x5 = g.A or g.p.x5 = g.E) and g.p.x6 = g.G))) or (g.p.x0 = g.A and (g.p.x1 = g.A and g.p.x2 = g.B) and (g.p.x3 = g.A and g.p.x4 = g.C and (g.p.x5 = g.C and g.p.x6 = g.G)) or g.p.x0 = g.A and (g.p.x1 = g.A and g.p.x2 = g.B) and (g.p.x3 = g.A and g.p.x4 = g.C and ((g.p.x5 = g.B or g.p.x5 = g.D) and g.p.x6 = g.G)) or (g.p.x0 = g.A and (g.p.x1 = g.A and g.p.x2 = g.B) and (g.p.x3 = g.A and (g.p.x4 = g.B or g.p.x4 = g.D) and ((g.p.x5 = g.A or g.p.x5 = g.E) and g.p.x6 = g.G)) or (g.p.x0 = g.A and (g.p.x1 = g.A and g.p.x2 = g.B) and (g.p.x3 = g.A and (g.p.x4 = g.B or g.p.x4 = g.D) and (g.p.x5 = g.C and g.p.x6 = g.G)) or g.p.x0 = g.A and (g.p.x1 = g.A and g.p.x2 = g.B) and (g.p.x3 = g.A and (g.p.x4 = g.B or g.p.x4 = g.D) and ((g.p.x5 = g.B or g.p.x5 = g.D) and g.p.x6 = g.G))))) or (g.p.x0 = g.A and (g.p.x1 = g.A and g.p.x2 = g.B) and ((g.p.x3 = g.B or g.p.x3 = g.D) and (g.p.x4 = g.A or g.p.x4 = g.E) and ((g.p.x5 = g.A or g.p.x5 = g.E) and g.p.x6 = g.G)) or g.p.x0 = g.A and (g.p.x1 = g.A and g.p.x2 = g.B) and ((g.p.x3 = g.B or g.p.x3 = g.D) and (g.p.x4 = g.A or g.p.x4 = g.E) and (g.p.x5 = g.C and g.p.x6 = g.G)) or (g.p.x0 = g.A and (g.p.x1 = g.A and g.p.x2 = g.B) and ((g.p.x3 = g.B or g.p.x3 = g.D) and (g.p.x4 = g.A or g.p.x4 = g.E) and ((g.p.x5 = g.B or g.p.x5 = g.D) and g.p.x6 = g.G)) or g.p.x0 = g.A and (g.p.x1 = g.A and g.p.x2 = g.B) and ((g.p.x3 = g.B or g.p.x3 = g.D) and g.p.x4 = g.C and ((g.p.x5 = g.A or g.p.x5 = g.E) and g.p.x6 = g.G))) or (g.p.x0 = g.A and (g.p.x1 = g.A and g.p.x2 = g.B) and ((g.p.x3 = g.B or g.p.x3 = g.D) and g.p.x4 = g.C and (g.p.x5 = g.C and g.p.x6 = g.G)) or g.p.x0 = g.A and (g.p.x1 = g.A and g.p.x2 = g.B) and ((g.p.x3 = g.B or g.p.x3 = g.D) and g.p.x4 = g.C and ((g.p.x5 = g.B or g.p.x5 = g.D) and g.p.x6 = g.G)) or (g.p.x0 = g.A and (g.p.x1 = g.A and g.p.x2 = g.B) and ((g.p.x3 = g.B or g.p.x3 = g.D) and (g.p.x4 = g.B or g.p.x4 = g.D) and ((g.p.x5 = g.A or g.p.x5 = g.E) and g.p.x6 = g.G)) or (g.p.x0 = g.A and (g.p.x1 = g.A and g.p.x2 = g.B) and ((g.p.x3 = g.B or g.p.x3 = g.D) and (g.p.x4 = g.B or g.p.x4 = g.D) and (g.p.x5 = g.C and g.p.x6 = g.G)) or g.p.x0 = g.A and (g.p.x1 = g.A and g.p.x2 = g.B) and ((g.p.x3 = g.B or g.p.x3 = g.D) and (g.p.x4 = g.B or g.p.x4 = g.D) and ((g.p.x5 = g.B or g.p.x5 = g.D) and g.p.x6 = g.G))))))
Initial   (system, combined init/plant inv): g.p.x0 = g.A and (g.p.x1 = g.A and g.p.x2 = g.B) and (g.p.x3 = g.A and (g.p.x4 = g.A or g.p.x4 = g.E) and ((g.p.x5 = g.A or g.p.x5 = g.E) and g.p.x6 = g.G)) or g.p.x0 = g.A and (g.p.x1 = g.A and g.p.x2 = g.B) and (g.p.x3 = g.A and (g.p.x4 = g.A or g.p.x4 = g.E) and (g.p.x5 = g.C and g.p.x6 = g.G)) or (g.p.x0 = g.A and (g.p.x1 = g.A and g.p.x2 = g.B) and (g.p.x3 = g.A and (g.p.x4 = g.A or g.p.x4 = g.E) and ((g.p.x5 = g.B or g.p.x5 = g.D) and g.p.x6 = g.G)) or g.p.x0 = g.A and (g.p.x1 = g.A and g.p.x2 = g.B) and (g.p.x3 = g.A and g.p.x4 = g.C and ((g.p.x5 = g.A or g.p.x5 = g.E) and g.p.x6 = g.G))) or (g.p.x0 = g.A and (g.p.x1 = g.A and g.p.x2 = g.B) and (g.p.x3 = g.A and g.p.x4 = g.C and (g.p.x5 = g.C and g.p.x6 = g.G)) or g.p.x0 = g.A and (g.p.x1 = g.A and g.p.x2 = g.B) and (g.p.x3 = g.A and g.p.x4 = g.C and ((g.p.x5 = g.B or g.p.x5 = g.D) and g.p.x6 = g.G)) or (g.p.x0 = g.A and (g.p.x1 = g.A and g.p.x2 = g.B) and (g.p.x3 = g.A and (g.p.x4 = g.B or g.p.x4 = g.D) and ((g.p.x5 = g.A or g.p.x5 = g.E) and g.p.x6 = g.G)) or (g.p.x0 = g.A and (g.p.x1 = g.A and g.p.x2 = g.B) and (g.p.x3 = g.A and (g.p.x4 = g.B or g.p.x4 = g.D) and (g.p.x5 = g.C and g.p.x6 = g.G)) or g.p.x0 = g.A and (g.p.x1 = g.A and g.p.x2 = g.B) and (g.p.x3 = g.A and (g.p.x4 = g.B or g.p.x4 = g.D) and ((g.p.x5 = g.B or g.p.x5 = g.D) and g.p.x6 = g.G))))) or (g.p.x0 = g.A and (g.p.x1 = g.A and g.p.x2 = g.B) and ((g.p.x3 = g.B or g.p.x3 = g.D) and (g.p.x4 = g.A or g.p.x4 = g.E) and ((g.p.x5 = g.A or g.p.x5 = g.E) and g.p.x6 = g.G)) or g.p.x0 = g.A and (g.p.x1 = g.A and g.p.x2 = g.B) and ((g.p.x3 = g.B or g.p.x3 = g.D) and (g.p.x4 = g.A or g.p.x4 = g.E) and (g.p.x5 = g.C and g.p.x6 = g.G)) or (g.p.x0 = g.A and (g.p.x1 = g.A and g.p.x2 = g.B) and ((g.p.x3 = g.B or g.p.x3 = g.D) and (g.p.x4 = g.A or g.p.x4 = g.E) and ((g.p.x5 = g.B or g.p.x5 = g.D) and g.p.x6 = g.G)) or g.p.x0 = g.A and (g.p.x1 = g.A and g.p.x2 = g.B) and ((g.p.x3 = g.B or g.p.x3 = g.D) and g.p.x4 = g.C and ((g.p.x5 = g.A or g.p.x5 = g.E) and g.p.x6 = g.G))) or (g.p.x0 = g.A and (g.p.x1 = g.A and g.p.x2 = g.B) and ((g.p.x3 = g.B or g.p.x3 = g.D) and g.p.x4 = g.C and (g.p.x5 = g.C and g.p.x6 = g.G)) or g.p.x0 = g.A and (g.p.x1 = g.A and g.p.x2 = g.B) and ((g.p.x3 = g.B or g.p.x3 = g.D) and g.p.x4 = g.C and ((g.p.x5 = g.B or g.p.x5 = g.D) and g.p.x6 = g.G)) or (g.p.x0 = g.A and (g.p.x1 = g.A and g.p.x2 = g.B) and ((g.p.x3 = g.B or g.p.x3 = g.D) and (g.p.x4 = g.B or g.p.x4 = g.D) and ((g.p.x5 = g.A or g.p.x5 = g.E) and g.p.x6 = g.G)) or (g.p.x0 = g.A and (g.p.x1 = g.A and g.p.x2 = g.B) and ((g.p.x3 = g.B or g.p.x3 = g.D) and (g.p.x4 = g.B or g.p.x4 = g.D) and (g.p.x5 = g.C and g.p.x6 = g.G)) or g.p.x0 = g.A and (g.p.x1 = g.A and g.p.x2 = g.B) and ((g.p.x3 = g.B or g.p.x3 = g.D) and (g.p.x4 = g.B or g.p.x4 = g.D) and ((g.p.x5 = g.B or g.p.x5 = g.D) and g.p.x6 = g.G))))))
Initial   (system, combined init/state inv): g.p.x0 = g.A and (g.p.x1 = g.A and g.p.x2 = g.B) and (g.p.x3 = g.A and (g.p.x4 = g.A or g.p.x4 = g.E) and ((g.p.x5 = g.A or g.p.x5 = g.E) and g.p.x6 = g.G)) or g.p.x0 = g.A and (g.p.x1 = g.A and g.p.x2 = g.B) and (g.p.x3 = g.A and (g.p.x4 = g.A or g.p.x4 = g.E) and (g.p.x5 = g.C and g.p.x6 = g.G)) or (g.p.x0 = g.A and (g.p.x1 = g.A and g.p.x2 = g.B) and (g.p.x3 = g.A and (g.p.x4 = g.A or g.p.x4 = g.E) and ((g.p.x5 = g.B or g.p.x5 = g.D) and g.p.x6 = g.G)) or g.p.x0 = g.A and (g.p.x1 = g.A and g.p.x2 = g.B) and (g.p.x3 = g.A and g.p.x4 = g.C and ((g.p.x5 = g.A or g.p.x5 = g.E) and g.p.x6 = g.G))) or (g.p.x0 = g.A and (g.p.x1 = g.A and g.p.x2 = g.B) and (g.p.x3 = g.A and g.p.x4 = g.C and (g.p.x5 = g.C and g.p.x6 = g.G)) or g.p.x0 = g.A and (g.p.x1 = g.A and g.p.x2 = g.B) and (g.p.x3 = g.A and g.p.x4 = g.C and ((g.p.x5 = g.B or g.p.x5 = g.D) and g.p.x6 = g.G)) or (g.p.x0 = g.A and (g.p.x1 = g.A and g.p.x2 = g.B) and (g.p.x3 = g.A and (g.p.x4 = g.B or g.p.x4 = g.D) and ((g.p.x5 = g.A or g.p.x5 = g.E) and g.p.x6 = g.G)) or (g.p.x0 = g.A and (g.p.x1 = g.A and g.p.x2 = g.B) and (g.p.x3 = g.A and (g.p.x4 = g.B or g.p.x4 = g.D) and (g.p.x5 = g.C and g.p.x6 = g.G)) or g.p.x0 = g.A and (g.p.x1 = g.A and g.p.x2 = g.B) and (g.p.x3 = g.A and (g.p.x4 = g.B or g.p.x4 = g.D) and ((g.p.x5 = g.B or g.p.x5 = g.D) and g.p.x6 = g.G))))) or (g.p.x0 = g.A and (g.p.x1 = g.A and g.p.x2 = g.B) and ((g.p.x3 = g.B or g.p.x3 = g.D) and (g.p.x4 = g.A or g.p.x4 = g.E) and ((g.p.x5 = g.A or g.p.x5 = g.E) and g.p.x6 = g.G)) or g.p.x0 = g.A and (g.p.x1 = g.A and g.p.x2 = g.B) and ((g.p.x3 = g.B or g.p.x3 = g.D) and (g.p.x4 = g.A or g.p.x4 = g.E) and (g.p.x5 = g.C and g.p.x6 = g.G)) or (g.p.x0 = g.A and (g.p.x1 = g.A and g.p.x2 = g.B) and ((g.p.x3 = g.B or g.p.x3 = g.D) and (g.p.x4 = g.A or g.p.x4 = g.E) and ((g.p.x5 = g.B or g.p.x5 = g.D) and g.p.x6 = g.G)) or g.p.x0 = g.A and (g.p.x1 = g.A and g.p.x2 = g.B) and ((g.p.x3 = g.B or g.p.x3 = g.D) and g.p.x4 = g.C and ((g.p.x5 = g.A or g.p.x5 = g.E) and g.p.x6 = g.G))) or (g.p.x0 = g.A and (g.p.x1 = g.A and g.p.x2 = g.B) and ((g.p.x3 = g.B or g.p.x3 = g.D) and g.p.x4 = g.C and (g.p.x5 = g.C and g.p.x6 = g.G)) or g.p.x0 = g.A and (g.p.x1 = g.A and g.p.x2 = g.B) and ((g.p.x3 = g.B or g.p.x3 = g.D) and g.p.x4 = g.C and ((g.p.x5 = g.B or g.p.x5 = g.D) and g.p.x6 = g.G)) or (g.p.x0 = g.A and (g.p.x1 = g.A and g.p.x2 = g.B) and ((g.p.x3 = g.B or g.p.x3 = g.D) and (g.p.x4 = g.B or g.p.x4 = g.D) and ((g.p.x5 = g.A or g.p.x5 = g.E) and g.p.x6 = g.G)) or (g.p.x0 = g.A and (g.p.x1 = g.A and g.p.x2 = g.B) and ((g.p.x3 = g.B or g.p.x3 = g.D) and (g.p.x4 = g.B or g.p.x4 = g.D) and (g.p.x5 = g.C and g.p.x6 = g.G)) or g.p.x0 = g.A and (g.p.x1 = g.A and g.p.x2 = g.B) and ((g.p.x3 = g.B or g.p.x3 = g.D) and (g.p.x4 = g.B or g.p.x4 = g.D) and ((g.p.x5 = g.B or g.p.x5 = g.D) and g.p.x6 = g.G))))))

Marked    (component marker predicate):      g.p.x1 = g.A
Marked    (component marker predicate):      g.p.x2 = g.B
Marked    (component marker predicate):      g.p.x3 = g.D
Marked    (component marker predicate):      g.p.x4 != g.C
Marked    (component marker predicate):      g.p.x4 != g.D
Marked    (component marker predicate):      g.p.x4 != g.E
Marked    (component marker predicate):      g.p.x5 != g.C
Marked    (components marker predicate):     g.p.x1 = g.A and g.p.x2 = g.B and (g.p.x3 = g.D and (g.p.x4 = g.A and (g.p.x5 = g.A or g.p.x5 = g.E))) or g.p.x1 = g.A and g.p.x2 = g.B and (g.p.x3 = g.D and (g.p.x4 = g.A and (g.p.x5 = g.B or g.p.x5 = g.D))) or (g.p.x1 = g.A and g.p.x2 = g.B and (g.p.x3 = g.D and (g.p.x4 = g.B and (g.p.x5 = g.A or g.p.x5 = g.E))) or g.p.x1 = g.A and g.p.x2 = g.B and (g.p.x3 = g.D and (g.p.x4 = g.B and (g.p.x5 = g.B or g.p.x5 = g.D))))
Marked    (aut/locs marker predicate):       g.p.x0 = g.E
Marked    (auts/locs marker predicate):      g.p.x0 = g.E
Marked    (uncontrolled system):             g.p.x0 = g.E and (g.p.x1 = g.A and g.p.x2 = g.B) and (g.p.x3 = g.D and (g.p.x4 = g.A and (g.p.x5 = g.A or g.p.x5 = g.E))) or g.p.x0 = g.E and (g.p.x1 = g.A and g.p.x2 = g.B) and (g.p.x3 = g.D and (g.p.x4 = g.A and (g.p.x5 = g.B or g.p.x5 = g.D))) or (g.p.x0 = g.E and (g.p.x1 = g.A and g.p.x2 = g.B) and (g.p.x3 = g.D and (g.p.x4 = g.B and (g.p.x5 = g.A or g.p.x5 = g.E))) or g.p.x0 = g.E and (g.p.x1 = g.A and g.p.x2 = g.B) and (g.p.x3 = g.D and (g.p.x4 = g.B and (g.p.x5 = g.B or g.p.x5 = g.D))))
Marked    (system, combined mark/plant inv): g.p.x0 = g.E and (g.p.x1 = g.A and g.p.x2 = g.B) and (g.p.x3 = g.D and (g.p.x4 = g.A and (g.p.x5 = g.A or g.p.x5 = g.E))) or g.p.x0 = g.E and (g.p.x1 = g.A and g.p.x2 = g.B) and (g.p.x3 = g.D and (g.p.x4 = g.A and (g.p.x5 = g.B or g.p.x5 = g.D))) or (g.p.x0 = g.E and (g.p.x1 = g.A and g.p.x2 = g.B) and (g.p.x3 = g.D and (g.p.x4 = g.B and (g.p.x5 = g.A or g.p.x5 = g.E))) or g.p.x0 = g.E and (g.p.x1 = g.A and g.p.x2 = g.B) and (g.p.x3 = g.D and (g.p.x4 = g.B and (g.p.x5 = g.B or g.p.x5 = g.D))))
Marked    (system, combined mark/state inv): g.p.x0 = g.E and (g.p.x1 = g.A and g.p.x2 = g.B) and (g.p.x3 = g.D and (g.p.x4 = g.A and (g.p.x5 = g.A or g.p.x5 = g.E))) or g.p.x0 = g.E and (g.p.x1 = g.A and g.p.x2 = g.B) and (g.p.x3 = g.D and (g.p.x4 = g.A and (g.p.x5 = g.B or g.p.x5 = g.D))) or (g.p.x0 = g.E and (g.p.x1 = g.A and g.p.x2 = g.B) and (g.p.x3 = g.D and (g.p.x4 = g.B and (g.p.x5 = g.A or g.p.x5 = g.E))) or g.p.x0 = g.E and (g.p.x1 = g.A and g.p.x2 = g.B) and (g.p.x3 = g.D and (g.p.x4 = g.B and (g.p.x5 = g.B or g.p.x5 = g.D))))

State/event exclusion plants:
  None

State/event exclusion requirements:
  None

Uncontrolled system:
  State: (controlled-behavior: ?)
    Edge: (event: g.e1) (guard: g.p.x0 = g.A) (assignments: g.p.x0 := g.B)
    Edge: (event: g.e1) (guard: g.p.x0 = g.B) (assignments: g.p.x0 := g.C)
    Edge: (event: g.e1) (guard: g.p.x0 = g.C) (assignments: g.p.x0 := g.D)
    Edge: (event: g.e1) (guard: g.p.x0 = g.D) (assignments: g.p.x0 := g.E)
    Edge: (event: g.e2) (guard: g.p.x6 = g.G)
    Edge: (event: g.e2) (guard: g.p.x6 != g.G)

Restricting behavior using state/event exclusion plants.

Initialized controlled-behavior predicate: true.
Initialized controlled-initialization predicate: g.p.x0 = g.A and (g.p.x1 = g.A and g.p.x2 = g.B) and (g.p.x3 = g.A and (g.p.x4 = g.A or g.p.x4 = g.E) and ((g.p.x5 = g.A or g.p.x5 = g.E) and g.p.x6 = g.G)) or g.p.x0 = g.A and (g.p.x1 = g.A and g.p.x2 = g.B) and (g.p.x3 = g.A and (g.p.x4 = g.A or g.p.x4 = g.E) and (g.p.x5 = g.C and g.p.x6 = g.G)) or (g.p.x0 = g.A and (g.p.x1 = g.A and g.p.x2 = g.B) and (g.p.x3 = g.A and (g.p.x4 = g.A or g.p.x4 = g.E) and ((g.p.x5 = g.B or g.p.x5 = g.D) and g.p.x6 = g.G)) or g.p.x0 = g.A and (g.p.x1 = g.A and g.p.x2 = g.B) and (g.p.x3 = g.A and g.p.x4 = g.C and ((g.p.x5 = g.A or g.p.x5 = g.E) and g.p.x6 = g.G))) or (g.p.x0 = g.A and (g.p.x1 = g.A and g.p.x2 = g.B) and (g.p.x3 = g.A and g.p.x4 = g.C and (g.p.x5 = g.C and g.p.x6 = g.G)) or g.p.x0 = g.A and (g.p.x1 = g.A and g.p.x2 = g.B) and (g.p.x3 = g.A and g.p.x4 = g.C and ((g.p.x5 = g.B or g.p.x5 = g.D) and g.p.x6 = g.G)) or (g.p.x0 = g.A and (g.p.x1 = g.A and g.p.x2 = g.B) and (g.p.x3 = g.A and (g.p.x4 = g.B or g.p.x4 = g.D) and ((g.p.x5 = g.A or g.p.x5 = g.E) and g.p.x6 = g.G)) or (g.p.x0 = g.A and (g.p.x1 = g.A and g.p.x2 = g.B) and (g.p.x3 = g.A and (g.p.x4 = g.B or g.p.x4 = g.D) and (g.p.x5 = g.C and g.p.x6 = g.G)) or g.p.x0 = g.A and (g.p.x1 = g.A and g.p.x2 = g.B) and (g.p.x3 = g.A and (g.p.x4 = g.B or g.p.x4 = g.D) and ((g.p.x5 = g.B or g.p.x5 = g.D) and g.p.x6 = g.G))))) or (g.p.x0 = g.A and (g.p.x1 = g.A and g.p.x2 = g.B) and ((g.p.x3 = g.B or g.p.x3 = g.D) and (g.p.x4 = g.A or g.p.x4 = g.E) and ((g.p.x5 = g.A or g.p.x5 = g.E) and g.p.x6 = g.G)) or g.p.x0 = g.A and (g.p.x1 = g.A and g.p.x2 = g.B) and ((g.p.x3 = g.B or g.p.x3 = g.D) and (g.p.x4 = g.A or g.p.x4 = g.E) and (g.p.x5 = g.C and g.p.x6 = g.G)) or (g.p.x0 = g.A and (g.p.x1 = g.A and g.p.x2 = g.B) and ((g.p.x3 = g.B or g.p.x3 = g.D) and (g.p.x4 = g.A or g.p.x4 = g.E) and ((g.p.x5 = g.B or g.p.x5 = g.D) and g.p.x6 = g.G)) or g.p.x0 = g.A and (g.p.x1 = g.A and g.p.x2 = g.B) and ((g.p.x3 = g.B or g.p.x3 = g.D) and g.p.x4 = g.C and ((g.p.x5 = g.A or g.p.x5 = g.E) and g.p.x6 = g.G))) or (g.p.x0 = g.A and (g.p.x1 = g.A and g.p.x2 = g.B) and ((g.p.x3 = g.B or g.p.x3 = g.D) and g.p.x4 = g.C and (g.p.x5 = g.C and g.p.x6 = g.G)) or g.p.x0 = g.A and (g.p.x1 = g.A and g.p.x2 = g.B) and ((g.p.x3 = g.B or g.p.x3 = g.D) and g.p.x4 = g.C and ((g.p.x5 = g.B or g.p.x5 = g.D) and g.p.x6 = g.G)) or (g.p.x0 = g.A and (g.p.x1 = g.A and g.p.x2 = g.B) and ((g.p.x3 = g.B or g.p.x3 = g.D) and (g.p.x4 = g.B or g.p.x4 = g.D) and ((g.p.x5 = g.A or g.p.x5 = g.E) and g.p.x6 = g.G)) or (g.p.x0 = g.A and (g.p.x1 = g.A and g.p.x2 = g.B) and ((g.p.x3 = g.B or g.p.x3 = g.D) and (g.p.x4 = g.B or g.p.x4 = g.D) and (g.p.x5 = g.C and g.p.x6 = g.G)) or g.p.x0 = g.A and (g.p.x1 = g.A and g.p.x2 = g.B) and ((g.p.x3 = g.B or g.p.x3 = g.D) and (g.p.x4 = g.B or g.p.x4 = g.D) and ((g.p.x5 = g.B or g.p.x5 = g.D) and g.p.x6 = g.G)))))).

Restricting behavior using state requirements.

Extending controlled-behavior predicate using variable ranges.

Controlled behavior: true -> true [range: true, variable: discrete variable "g.p.x0" of type "g.E1" (group: 0, domain: 0+1, BDD variables: 3, CIF/BDD values: 5/8)].
Controlled behavior: true -> true [range: true, variable: discrete variable "g.p.x1" of type "g.E1" (group: 1, domain: 2+3, BDD variables: 3, CIF/BDD values: 5/8)].
Controlled behavior: true -> <bdd 9n 27p> [range: true, variable: discrete variable "g.p.x2" of type "g.E1" (group: 2, domain: 4+5, BDD variables: 3, CIF/BDD values: 5/8)].
Controlled behavior: <bdd 9n 27p> -> <bdd 12n 81p> [range: true, variable: discrete variable "g.p.x3" of type "g.E1" (group: 3, domain: 6+7, BDD variables: 3, CIF/BDD values: 5/8)].
Controlled behavior: <bdd 12n 81p> -> <bdd 15n 243p> [range: true, variable: discrete variable "g.p.x4" of type "g.E1" (group: 4, domain: 8+9, BDD variables: 3, CIF/BDD values: 5/8)].
Controlled behavior: <bdd 15n 243p> -> <bdd 18n 729p> [range: true, variable: discrete variable "g.p.x5" of type "g.E1" (group: 5, domain: 10+11, BDD variables: 3, CIF/BDD values: 5/8)].
Controlled behavior: <bdd 18n 729p> -> <bdd 20n 1,458p> [range: true, variable: discrete variable "g.p.x6" of type "g.E2" (group: 6, domain: 12+13, BDD variables: 2, CIF/BDD values: 3/4)].

Extended controlled-behavior predicate using variable ranges: <bdd 20n 1,458p>.

Restricting behavior using state/event exclusion requirements.

Round 1: started.

Round 1: computing backward controlled-behavior predicate.
Backward controlled-behavior: g.p.x0 = g.E and (g.p.x1 = g.A and g.p.x2 = g.B) and (g.p.x3 = g.D and (g.p.x4 = g.A and (g.p.x5 = g.A or g.p.x5 = g.E))) or g.p.x0 = g.E and (g.p.x1 = g.A and g.p.x2 = g.B) and (g.p.x3 = g.D and (g.p.x4 = g.A and (g.p.x5 = g.B or g.p.x5 = g.D))) or (g.p.x0 = g.E and (g.p.x1 = g.A and g.p.x2 = g.B) and (g.p.x3 = g.D and (g.p.x4 = g.B and (g.p.x5 = g.A or g.p.x5 = g.E))) or g.p.x0 = g.E and (g.p.x1 = g.A and g.p.x2 = g.B) and (g.p.x3 = g.D and (g.p.x4 = g.B and (g.p.x5 = g.B or g.p.x5 = g.D)))) [marker predicate]
Backward controlled-behavior: g.p.x0 = g.E and (g.p.x1 = g.A and g.p.x2 = g.B) and (g.p.x3 = g.D and (g.p.x4 = g.A and (g.p.x5 = g.A or g.p.x5 = g.E))) or g.p.x0 = g.E and (g.p.x1 = g.A and g.p.x2 = g.B) and (g.p.x3 = g.D and (g.p.x4 = g.A and (g.p.x5 = g.B or g.p.x5 = g.D))) or (g.p.x0 = g.E and (g.p.x1 = g.A and g.p.x2 = g.B) and (g.p.x3 = g.D and (g.p.x4 = g.B and (g.p.x5 = g.A or g.p.x5 = g.E))) or g.p.x0 = g.E and (g.p.x1 = g.A and g.p.x2 = g.B) and (g.p.x3 = g.D and (g.p.x4 = g.B and (g.p.x5 = g.B or g.p.x5 = g.D)))) -> g.p.x0 = g.E and (g.p.x1 = g.A and g.p.x2 = g.B) and (g.p.x3 = g.D and (g.p.x4 = g.A or g.p.x4 = g.B) and ((g.p.x5 = g.A or g.p.x5 = g.E) and g.p.x6 != g.G)) or g.p.x0 = g.E and (g.p.x1 = g.A and g.p.x2 = g.B) and (g.p.x3 = g.D and (g.p.x4 = g.A or g.p.x4 = g.B) and ((g.p.x5 = g.A or g.p.x5 = g.E) and g.p.x6 = g.G)) or (g.p.x0 = g.E and (g.p.x1 = g.A and g.p.x2 = g.B) and (g.p.x3 = g.D and (g.p.x4 = g.A or g.p.x4 = g.B) and ((g.p.x5 = g.B or g.p.x5 = g.D) and g.p.x6 != g.G)) or g.p.x0 = g.E and (g.p.x1 = g.A and g.p.x2 = g.B) and (g.p.x3 = g.D and (g.p.x4 = g.A or g.p.x4 = g.B) and ((g.p.x5 = g.B or g.p.x5 = g.D) and g.p.x6 = g.G))) [restricted to current/previous controlled-behavior predicate: <bdd 20n 1,458p>]
Backward reachability: iteration 1.
Backward controlled-behavior: g.p.x0 = g.E and (g.p.x1 = g.A and g.p.x2 = g.B) and (g.p.x3 = g.D and (g.p.x4 = g.A or g.p.x4 = g.B) and ((g.p.x5 = g.A or g.p.x5 = g.E) and g.p.x6 != g.G)) or g.p.x0 = g.E and (g.p.x1 = g.A and g.p.x2 = g.B) and (g.p.x3 = g.D and (g.p.x4 = g.A or g.p.x4 = g.B) and ((g.p.x5 = g.A or g.p.x5 = g.E) and g.p.x6 = g.G)) or (g.p.x0 = g.E and (g.p.x1 = g.A and g.p.x2 = g.B) and (g.p.x3 = g.D and (g.p.x4 = g.A or g.p.x4 = g.B) and ((g.p.x5 = g.B or g.p.x5 = g.D) and g.p.x6 != g.G)) or g.p.x0 = g.E and (g.p.x1 = g.A and g.p.x2 = g.B) and (g.p.x3 = g.D and (g.p.x4 = g.A or g.p.x4 = g.B) and ((g.p.x5 = g.B or g.p.x5 = g.D) and g.p.x6 = g.G))) -> <bdd 21n 8p> [backward reach with edge: (event: g.e1) (guard: g.p.x0 = g.D) (assignments: g.p.x0 := g.E), restricted to current/previous controlled-behavior predicate: <bdd 20n 1,458p>]
Backward reachability: iteration 2.
Backward controlled-behavior: <bdd 21n 8p> -> <bdd 21n 12p> [backward reach with edge: (event: g.e1) (guard: g.p.x0 = g.C) (assignments: g.p.x0 := g.D), restricted to current/previous controlled-behavior predicate: <bdd 20n 1,458p>]
Backward reachability: iteration 3.
Backward controlled-behavior: <bdd 21n 12p> -> g.p.x0 = g.E and (g.p.x1 = g.A and g.p.x2 = g.B) and (g.p.x3 = g.D and (g.p.x4 = g.A or g.p.x4 = g.B) and ((g.p.x5 = g.A or g.p.x5 = g.E) and g.p.x6 != g.G)) or (g.p.x0 = g.E and (g.p.x1 = g.A and g.p.x2 = g.B) and (g.p.x3 = g.D and (g.p.x4 = g.A or g.p.x4 = g.B) and ((g.p.x5 = g.A or g.p.x5 = g.E) and g.p.x6 = g.G)) or g.p.x0 = g.E and (g.p.x1 = g.A and g.p.x2 = g.B) and (g.p.x3 = g.D and (g.p.x4 = g.A or g.p.x4 = g.B) and ((g.p.x5 = g.B or g.p.x5 = g.D) and g.p.x6 != g.G))) or (g.p.x0 = g.E and (g.p.x1 = g.A and g.p.x2 = g.B) and (g.p.x3 = g.D and (g.p.x4 = g.A or g.p.x4 = g.B) and ((g.p.x5 = g.B or g.p.x5 = g.D) and g.p.x6 = g.G)) or (g.p.x0 = g.C and (g.p.x1 = g.A and g.p.x2 = g.B) and (g.p.x3 = g.D and (g.p.x4 = g.A or g.p.x4 = g.B) and ((g.p.x5 = g.A or g.p.x5 = g.E) and g.p.x6 != g.G)) or g.p.x0 = g.C and (g.p.x1 = g.A and g.p.x2 = g.B) and (g.p.x3 = g.D and (g.p.x4 = g.A or g.p.x4 = g.B) and ((g.p.x5 = g.A or g.p.x5 = g.E) and g.p.x6 = g.G)))) or (g.p.x0 = g.C and (g.p.x1 = g.A and g.p.x2 = g.B) and (g.p.x3 = g.D and (g.p.x4 = g.A or g.p.x4 = g.B) and ((g.p.x5 = g.B or g.p.x5 = g.D) and g.p.x6 != g.G)) or (g.p.x0 = g.C and (g.p.x1 = g.A and g.p.x2 = g.B) and (g.p.x3 = g.D and (g.p.x4 = g.A or g.p.x4 = g.B) and ((g.p.x5 = g.B or g.p.x5 = g.D) and g.p.x6 = g.G)) or (g.p.x0 = g.B or g.p.x0 = g.D) and (g.p.x1 = g.A and g.p.x2 = g.B) and (g.p.x3 = g.D and (g.p.x4 = g.A or g.p.x4 = g.B) and ((g.p.x5 = g.A or g.p.x5 = g.E) and g.p.x6 != g.G))) or ((g.p.x0 = g.B or g.p.x0 = g.D) and (g.p.x1 = g.A and g.p.x2 = g.B) and (g.p.x3 = g.D and (g.p.x4 = g.A or g.p.x4 = g.B) and ((g.p.x5 = g.A or g.p.x5 = g.E) and g.p.x6 = g.G)) or ((g.p.x0 = g.B or g.p.x0 = g.D) and (g.p.x1 = g.A and g.p.x2 = g.B) and (g.p.x3 = g.D and (g.p.x4 = g.A or g.p.x4 = g.B) and ((g.p.x5 = g.B or g.p.x5 = g.D) and g.p.x6 != g.G)) or (g.p.x0 = g.B or g.p.x0 = g.D) and (g.p.x1 = g.A and g.p.x2 = g.B) and (g.p.x3 = g.D and (g.p.x4 = g.A or g.p.x4 = g.B) and ((g.p.x5 = g.B or g.p.x5 = g.D) and g.p.x6 = g.G))))) [backward reach with edge: (event: g.e1) (guard: g.p.x0 = g.B) (assignments: g.p.x0 := g.C), restricted to current/previous controlled-behavior predicate: <bdd 20n 1,458p>]
Backward reachability: iteration 4.
Backward controlled-behavior: g.p.x0 = g.E and (g.p.x1 = g.A and g.p.x2 = g.B) and (g.p.x3 = g.D and (g.p.x4 = g.A or g.p.x4 = g.B) and ((g.p.x5 = g.A or g.p.x5 = g.E) and g.p.x6 != g.G)) or (g.p.x0 = g.E and (g.p.x1 = g.A and g.p.x2 = g.B) and (g.p.x3 = g.D and (g.p.x4 = g.A or g.p.x4 = g.B) and ((g.p.x5 = g.A or g.p.x5 = g.E) and g.p.x6 = g.G)) or g.p.x0 = g.E and (g.p.x1 = g.A and g.p.x2 = g.B) and (g.p.x3 = g.D and (g.p.x4 = g.A or g.p.x4 = g.B) and ((g.p.x5 = g.B or g.p.x5 = g.D) and g.p.x6 != g.G))) or (g.p.x0 = g.E and (g.p.x1 = g.A and g.p.x2 = g.B) and (g.p.x3 = g.D and (g.p.x4 = g.A or g.p.x4 = g.B) and ((g.p.x5 = g.B or g.p.x5 = g.D) and g.p.x6 = g.G)) or (g.p.x0 = g.C and (g.p.x1 = g.A and g.p.x2 = g.B) and (g.p.x3 = g.D and (g.p.x4 = g.A or g.p.x4 = g.B) and ((g.p.x5 = g.A or g.p.x5 = g.E) and g.p.x6 != g.G)) or g.p.x0 = g.C and (g.p.x1 = g.A and g.p.x2 = g.B) and (g.p.x3 = g.D and (g.p.x4 = g.A or g.p.x4 = g.B) and ((g.p.x5 = g.A or g.p.x5 = g.E) and g.p.x6 = g.G)))) or (g.p.x0 = g.C and (g.p.x1 = g.A and g.p.x2 = g.B) and (g.p.x3 = g.D and (g.p.x4 = g.A or g.p.x4 = g.B) and ((g.p.x5 = g.B or g.p.x5 = g.D) and g.p.x6 != g.G)) or (g.p.x0 = g.C and (g.p.x1 = g.A and g.p.x2 = g.B) and (g.p.x3 = g.D and (g.p.x4 = g.A or g.p.x4 = g.B) and ((g.p.x5 = g.B or g.p.x5 = g.D) and g.p.x6 = g.G)) or (g.p.x0 = g.B or g.p.x0 = g.D) and (g.p.x1 = g.A and g.p.x2 = g.B) and (g.p.x3 = g.D and (g.p.x4 = g.A or g.p.x4 = g.B) and ((g.p.x5 = g.A or g.p.x5 = g.E) and g.p.x6 != g.G))) or ((g.p.x0 = g.B or g.p.x0 = g.D) and (g.p.x1 = g.A and g.p.x2 = g.B) and (g.p.x3 = g.D and (g.p.x4 = g.A or g.p.x4 = g.B) and ((g.p.x5 = g.A or g.p.x5 = g.E) and g.p.x6 = g.G)) or ((g.p.x0 = g.B or g.p.x0 = g.D) and (g.p.x1 = g.A and g.p.x2 = g.B) and (g.p.x3 = g.D and (g.p.x4 = g.A or g.p.x4 = g.B) and ((g.p.x5 = g.B or g.p.x5 = g.D) and g.p.x6 != g.G)) or (g.p.x0 = g.B or g.p.x0 = g.D) and (g.p.x1 = g.A and g.p.x2 = g.B) and (g.p.x3 = g.D and (g.p.x4 = g.A or g.p.x4 = g.B) and ((g.p.x5 = g.B or g.p.x5 = g.D) and g.p.x6 = g.G))))) -> (g.p.x0 = g.A or g.p.x0 = g.E) and (g.p.x1 = g.A and g.p.x2 = g.B) and (g.p.x3 = g.D and (g.p.x4 = g.A or g.p.x4 = g.B) and ((g.p.x5 = g.A or g.p.x5 = g.E) and g.p.x6 != g.G)) or ((g.p.x0 = g.A or g.p.x0 = g.E) and (g.p.x1 = g.A and g.p.x2 = g.B) and (g.p.x3 = g.D and (g.p.x4 = g.A or g.p.x4 = g.B) and ((g.p.x5 = g.A or g.p.x5 = g.E) and g.p.x6 = g.G)) or (g.p.x0 = g.A or g.p.x0 = g.E) and (g.p.x1 = g.A and g.p.x2 = g.B) and (g.p.x3 = g.D and (g.p.x4 = g.A or g.p.x4 = g.B) and ((g.p.x5 = g.B or g.p.x5 = g.D) and g.p.x6 != g.G))) or ((g.p.x0 = g.A or g.p.x0 = g.E) and (g.p.x1 = g.A and g.p.x2 = g.B) and (g.p.x3 = g.D and (g.p.x4 = g.A or g.p.x4 = g.B) and ((g.p.x5 = g.B or g.p.x5 = g.D) and g.p.x6 = g.G)) or (g.p.x0 = g.C and (g.p.x1 = g.A and g.p.x2 = g.B) and (g.p.x3 = g.D and (g.p.x4 = g.A or g.p.x4 = g.B) and ((g.p.x5 = g.A or g.p.x5 = g.E) and g.p.x6 != g.G)) or g.p.x0 = g.C and (g.p.x1 = g.A and g.p.x2 = g.B) and (g.p.x3 = g.D and (g.p.x4 = g.A or g.p.x4 = g.B) and ((g.p.x5 = g.A or g.p.x5 = g.E) and g.p.x6 = g.G)))) or (g.p.x0 = g.C and (g.p.x1 = g.A and g.p.x2 = g.B) and (g.p.x3 = g.D and (g.p.x4 = g.A or g.p.x4 = g.B) and ((g.p.x5 = g.B or g.p.x5 = g.D) and g.p.x6 != g.G)) or (g.p.x0 = g.C and (g.p.x1 = g.A and g.p.x2 = g.B) and (g.p.x3 = g.D and (g.p.x4 = g.A or g.p.x4 = g.B) and ((g.p.x5 = g.B or g.p.x5 = g.D) and g.p.x6 = g.G)) or (g.p.x0 = g.B or g.p.x0 = g.D) and (g.p.x1 = g.A and g.p.x2 = g.B) and (g.p.x3 = g.D and (g.p.x4 = g.A or g.p.x4 = g.B) and ((g.p.x5 = g.A or g.p.x5 = g.E) and g.p.x6 != g.G))) or ((g.p.x0 = g.B or g.p.x0 = g.D) and (g.p.x1 = g.A and g.p.x2 = g.B) and (g.p.x3 = g.D and (g.p.x4 = g.A or g.p.x4 = g.B) and ((g.p.x5 = g.A or g.p.x5 = g.E) and g.p.x6 = g.G)) or ((g.p.x0 = g.B or g.p.x0 = g.D) and (g.p.x1 = g.A and g.p.x2 = g.B) and (g.p.x3 = g.D and (g.p.x4 = g.A or g.p.x4 = g.B) and ((g.p.x5 = g.B or g.p.x5 = g.D) and g.p.x6 != g.G)) or (g.p.x0 = g.B or g.p.x0 = g.D) and (g.p.x1 = g.A and g.p.x2 = g.B) and (g.p.x3 = g.D and (g.p.x4 = g.A or g.p.x4 = g.B) and ((g.p.x5 = g.B or g.p.x5 = g.D) and g.p.x6 = g.G))))) [backward reach with edge: (event: g.e1) (guard: g.p.x0 = g.A) (assignments: g.p.x0 := g.B), restricted to current/previous controlled-behavior predicate: <bdd 20n 1,458p>]
Backward reachability: iteration 5.
Backward controlled-behavior: (g.p.x0 = g.A or g.p.x0 = g.E) and (g.p.x1 = g.A and g.p.x2 = g.B) and (g.p.x3 = g.D and (g.p.x4 = g.A or g.p.x4 = g.B) and ((g.p.x5 = g.A or g.p.x5 = g.E) and g.p.x6 != g.G)) or ((g.p.x0 = g.A or g.p.x0 = g.E) and (g.p.x1 = g.A and g.p.x2 = g.B) and (g.p.x3 = g.D and (g.p.x4 = g.A or g.p.x4 = g.B) and ((g.p.x5 = g.A or g.p.x5 = g.E) and g.p.x6 = g.G)) or (g.p.x0 = g.A or g.p.x0 = g.E) and (g.p.x1 = g.A and g.p.x2 = g.B) and (g.p.x3 = g.D and (g.p.x4 = g.A or g.p.x4 = g.B) and ((g.p.x5 = g.B or g.p.x5 = g.D) and g.p.x6 != g.G))) or ((g.p.x0 = g.A or g.p.x0 = g.E) and (g.p.x1 = g.A and g.p.x2 = g.B) and (g.p.x3 = g.D and (g.p.x4 = g.A or g.p.x4 = g.B) and ((g.p.x5 = g.B or g.p.x5 = g.D) and g.p.x6 = g.G)) or (g.p.x0 = g.C and (g.p.x1 = g.A and g.p.x2 = g.B) and (g.p.x3 = g.D and (g.p.x4 = g.A or g.p.x4 = g.B) and ((g.p.x5 = g.A or g.p.x5 = g.E) and g.p.x6 != g.G)) or g.p.x0 = g.C and (g.p.x1 = g.A and g.p.x2 = g.B) and (g.p.x3 = g.D and (g.p.x4 = g.A or g.p.x4 = g.B) and ((g.p.x5 = g.A or g.p.x5 = g.E) and g.p.x6 = g.G)))) or (g.p.x0 = g.C and (g.p.x1 = g.A and g.p.x2 = g.B) and (g.p.x3 = g.D and (g.p.x4 = g.A or g.p.x4 = g.B) and ((g.p.x5 = g.B or g.p.x5 = g.D) and g.p.x6 != g.G)) or (g.p.x0 = g.C and (g.p.x1 = g.A and g.p.x2 = g.B) and (g.p.x3 = g.D and (g.p.x4 = g.A or g.p.x4 = g.B) and ((g.p.x5 = g.B or g.p.x5 = g.D) and g.p.x6 = g.G)) or (g.p.x0 = g.B or g.p.x0 = g.D) and (g.p.x1 = g.A and g.p.x2 = g.B) and (g.p.x3 = g.D and (g.p.x4 = g.A or g.p.x4 = g.B) and ((g.p.x5 = g.A or g.p.x5 = g.E) and g.p.x6 != g.G))) or ((g.p.x0 = g.B or g.p.x0 = g.D) and (g.p.x1 = g.A and g.p.x2 = g.B) and (g.p.x3 = g.D and (g.p.x4 = g.A or g.p.x4 = g.B) and ((g.p.x5 = g.A or g.p.x5 = g.E) and g.p.x6 = g.G)) or ((g.p.x0 = g.B or g.p.x0 = g.D) and (g.p.x1 = g.A and g.p.x2 = g.B) and (g.p.x3 = g.D and (g.p.x4 = g.A or g.p.x4 = g.B) and ((g.p.x5 = g.B or g.p.x5 = g.D) and g.p.x6 != g.G)) or (g.p.x0 = g.B or g.p.x0 = g.D) and (g.p.x1 = g.A and g.p.x2 = g.B) and (g.p.x3 = g.D and (g.p.x4 = g.A or g.p.x4 = g.B) and ((g.p.x5 = g.B or g.p.x5 = g.D) and g.p.x6 = g.G))))) [fixed point].
Controlled behavior: <bdd 20n 1,458p> -> (g.p.x0 = g.A or g.p.x0 = g.E) and (g.p.x1 = g.A and g.p.x2 = g.B) and (g.p.x3 = g.D and (g.p.x4 = g.A or g.p.x4 = g.B) and ((g.p.x5 = g.A or g.p.x5 = g.E) and g.p.x6 != g.G)) or ((g.p.x0 = g.A or g.p.x0 = g.E) and (g.p.x1 = g.A and g.p.x2 = g.B) and (g.p.x3 = g.D and (g.p.x4 = g.A or g.p.x4 = g.B) and ((g.p.x5 = g.A or g.p.x5 = g.E) and g.p.x6 = g.G)) or (g.p.x0 = g.A or g.p.x0 = g.E) and (g.p.x1 = g.A and g.p.x2 = g.B) and (g.p.x3 = g.D and (g.p.x4 = g.A or g.p.x4 = g.B) and ((g.p.x5 = g.B or g.p.x5 = g.D) and g.p.x6 != g.G))) or ((g.p.x0 = g.A or g.p.x0 = g.E) and (g.p.x1 = g.A and g.p.x2 = g.B) and (g.p.x3 = g.D and (g.p.x4 = g.A or g.p.x4 = g.B) and ((g.p.x5 = g.B or g.p.x5 = g.D) and g.p.x6 = g.G)) or (g.p.x0 = g.C and (g.p.x1 = g.A and g.p.x2 = g.B) and (g.p.x3 = g.D and (g.p.x4 = g.A or g.p.x4 = g.B) and ((g.p.x5 = g.A or g.p.x5 = g.E) and g.p.x6 != g.G)) or g.p.x0 = g.C and (g.p.x1 = g.A and g.p.x2 = g.B) and (g.p.x3 = g.D and (g.p.x4 = g.A or g.p.x4 = g.B) and ((g.p.x5 = g.A or g.p.x5 = g.E) and g.p.x6 = g.G)))) or (g.p.x0 = g.C and (g.p.x1 = g.A and g.p.x2 = g.B) and (g.p.x3 = g.D and (g.p.x4 = g.A or g.p.x4 = g.B) and ((g.p.x5 = g.B or g.p.x5 = g.D) and g.p.x6 != g.G)) or (g.p.x0 = g.C and (g.p.x1 = g.A and g.p.x2 = g.B) and (g.p.x3 = g.D and (g.p.x4 = g.A or g.p.x4 = g.B) and ((g.p.x5 = g.B or g.p.x5 = g.D) and g.p.x6 = g.G)) or (g.p.x0 = g.B or g.p.x0 = g.D) and (g.p.x1 = g.A and g.p.x2 = g.B) and (g.p.x3 = g.D and (g.p.x4 = g.A or g.p.x4 = g.B) and ((g.p.x5 = g.A or g.p.x5 = g.E) and g.p.x6 != g.G))) or ((g.p.x0 = g.B or g.p.x0 = g.D) and (g.p.x1 = g.A and g.p.x2 = g.B) and (g.p.x3 = g.D and (g.p.x4 = g.A or g.p.x4 = g.B) and ((g.p.x5 = g.A or g.p.x5 = g.E) and g.p.x6 = g.G)) or ((g.p.x0 = g.B or g.p.x0 = g.D) and (g.p.x1 = g.A and g.p.x2 = g.B) and (g.p.x3 = g.D and (g.p.x4 = g.A or g.p.x4 = g.B) and ((g.p.x5 = g.B or g.p.x5 = g.D) and g.p.x6 != g.G)) or (g.p.x0 = g.B or g.p.x0 = g.D) and (g.p.x1 = g.A and g.p.x2 = g.B) and (g.p.x3 = g.D and (g.p.x4 = g.A or g.p.x4 = g.B) and ((g.p.x5 = g.B or g.p.x5 = g.D) and g.p.x6 = g.G))))).

Round 1: computing backward uncontrolled bad-state predicate.
Backward uncontrolled bad-state: <bdd 19n 47p> [current/previous controlled behavior predicate]

Round 1: computing forward controlled-behavior predicate.
Forward controlled-behavior: g.p.x0 = g.A and (g.p.x1 = g.A and g.p.x2 = g.B) and (g.p.x3 = g.A and (g.p.x4 = g.A or g.p.x4 = g.E) and ((g.p.x5 = g.A or g.p.x5 = g.E) and g.p.x6 = g.G)) or g.p.x0 = g.A and (g.p.x1 = g.A and g.p.x2 = g.B) and (g.p.x3 = g.A and (g.p.x4 = g.A or g.p.x4 = g.E) and (g.p.x5 = g.C and g.p.x6 = g.G)) or (g.p.x0 = g.A and (g.p.x1 = g.A and g.p.x2 = g.B) and (g.p.x3 = g.A and (g.p.x4 = g.A or g.p.x4 = g.E) and ((g.p.x5 = g.B or g.p.x5 = g.D) and g.p.x6 = g.G)) or g.p.x0 = g.A and (g.p.x1 = g.A and g.p.x2 = g.B) and (g.p.x3 = g.A and g.p.x4 = g.C and ((g.p.x5 = g.A or g.p.x5 = g.E) and g.p.x6 = g.G))) or (g.p.x0 = g.A and (g.p.x1 = g.A and g.p.x2 = g.B) and (g.p.x3 = g.A and g.p.x4 = g.C and (g.p.x5 = g.C and g.p.x6 = g.G)) or g.p.x0 = g.A and (g.p.x1 = g.A and g.p.x2 = g.B) and (g.p.x3 = g.A and g.p.x4 = g.C and ((g.p.x5 = g.B or g.p.x5 = g.D) and g.p.x6 = g.G)) or (g.p.x0 = g.A and (g.p.x1 = g.A and g.p.x2 = g.B) and (g.p.x3 = g.A and (g.p.x4 = g.B or g.p.x4 = g.D) and ((g.p.x5 = g.A or g.p.x5 = g.E) and g.p.x6 = g.G)) or (g.p.x0 = g.A and (g.p.x1 = g.A and g.p.x2 = g.B) and (g.p.x3 = g.A and (g.p.x4 = g.B or g.p.x4 = g.D) and (g.p.x5 = g.C and g.p.x6 = g.G)) or g.p.x0 = g.A and (g.p.x1 = g.A and g.p.x2 = g.B) and (g.p.x3 = g.A and (g.p.x4 = g.B or g.p.x4 = g.D) and ((g.p.x5 = g.B or g.p.x5 = g.D) and g.p.x6 = g.G))))) or (g.p.x0 = g.A and (g.p.x1 = g.A and g.p.x2 = g.B) and ((g.p.x3 = g.B or g.p.x3 = g.D) and (g.p.x4 = g.A or g.p.x4 = g.E) and ((g.p.x5 = g.A or g.p.x5 = g.E) and g.p.x6 = g.G)) or g.p.x0 = g.A and (g.p.x1 = g.A and g.p.x2 = g.B) and ((g.p.x3 = g.B or g.p.x3 = g.D) and (g.p.x4 = g.A or g.p.x4 = g.E) and (g.p.x5 = g.C and g.p.x6 = g.G)) or (g.p.x0 = g.A and (g.p.x1 = g.A and g.p.x2 = g.B) and ((g.p.x3 = g.B or g.p.x3 = g.D) and (g.p.x4 = g.A or g.p.x4 = g.E) and ((g.p.x5 = g.B or g.p.x5 = g.D) and g.p.x6 = g.G)) or g.p.x0 = g.A and (g.p.x1 = g.A and g.p.x2 = g.B) and ((g.p.x3 = g.B or g.p.x3 = g.D) and g.p.x4 = g.C and ((g.p.x5 = g.A or g.p.x5 = g.E) and g.p.x6 = g.G))) or (g.p.x0 = g.A and (g.p.x1 = g.A and g.p.x2 = g.B) and ((g.p.x3 = g.B or g.p.x3 = g.D) and g.p.x4 = g.C and (g.p.x5 = g.C and g.p.x6 = g.G)) or g.p.x0 = g.A and (g.p.x1 = g.A and g.p.x2 = g.B) and ((g.p.x3 = g.B or g.p.x3 = g.D) and g.p.x4 = g.C and ((g.p.x5 = g.B or g.p.x5 = g.D) and g.p.x6 = g.G)) or (g.p.x0 = g.A and (g.p.x1 = g.A and g.p.x2 = g.B) and ((g.p.x3 = g.B or g.p.x3 = g.D) and (g.p.x4 = g.B or g.p.x4 = g.D) and ((g.p.x5 = g.A or g.p.x5 = g.E) and g.p.x6 = g.G)) or (g.p.x0 = g.A and (g.p.x1 = g.A and g.p.x2 = g.B) and ((g.p.x3 = g.B or g.p.x3 = g.D) and (g.p.x4 = g.B or g.p.x4 = g.D) and (g.p.x5 = g.C and g.p.x6 = g.G)) or g.p.x0 = g.A and (g.p.x1 = g.A and g.p.x2 = g.B) and ((g.p.x3 = g.B or g.p.x3 = g.D) and (g.p.x4 = g.B or g.p.x4 = g.D) and ((g.p.x5 = g.B or g.p.x5 = g.D) and g.p.x6 = g.G)))))) [initialization predicate]
Forward controlled-behavior: g.p.x0 = g.A and (g.p.x1 = g.A and g.p.x2 = g.B) and (g.p.x3 = g.A and (g.p.x4 = g.A or g.p.x4 = g.E) and ((g.p.x5 = g.A or g.p.x5 = g.E) and g.p.x6 = g.G)) or g.p.x0 = g.A and (g.p.x1 = g.A and g.p.x2 = g.B) and (g.p.x3 = g.A and (g.p.x4 = g.A or g.p.x4 = g.E) and (g.p.x5 = g.C and g.p.x6 = g.G)) or (g.p.x0 = g.A and (g.p.x1 = g.A and g.p.x2 = g.B) and (g.p.x3 = g.A and (g.p.x4 = g.A or g.p.x4 = g.E) and ((g.p.x5 = g.B or g.p.x5 = g.D) and g.p.x6 = g.G)) or g.p.x0 = g.A and (g.p.x1 = g.A and g.p.x2 = g.B) and (g.p.x3 = g.A and g.p.x4 = g.C and ((g.p.x5 = g.A or g.p.x5 = g.E) and g.p.x6 = g.G))) or (g.p.x0 = g.A and (g.p.x1 = g.A and g.p.x2 = g.B) and (g.p.x3 = g.A and g.p.x4 = g.C and (g.p.x5 = g.C and g.p.x6 = g.G)) or g.p.x0 = g.A and (g.p.x1 = g.A and g.p.x2 = g.B) and (g.p.x3 = g.A and g.p.x4 = g.C and ((g.p.x5 = g.B or g.p.x5 = g.D) and g.p.x6 = g.G)) or (g.p.x0 = g.A and (g.p.x1 = g.A and g.p.x2 = g.B) and (g.p.x3 = g.A and (g.p.x4 = g.B or g.p.x4 = g.D) and ((g.p.x5 = g.A or g.p.x5 = g.E) and g.p.x6 = g.G)) or (g.p.x0 = g.A and (g.p.x1 = g.A and g.p.x2 = g.B) and (g.p.x3 = g.A and (g.p.x4 = g.B or g.p.x4 = g.D) and (g.p.x5 = g.C and g.p.x6 = g.G)) or g.p.x0 = g.A and (g.p.x1 = g.A and g.p.x2 = g.B) and (g.p.x3 = g.A and (g.p.x4 = g.B or g.p.x4 = g.D) and ((g.p.x5 = g.B or g.p.x5 = g.D) and g.p.x6 = g.G))))) or (g.p.x0 = g.A and (g.p.x1 = g.A and g.p.x2 = g.B) and ((g.p.x3 = g.B or g.p.x3 = g.D) and (g.p.x4 = g.A or g.p.x4 = g.E) and ((g.p.x5 = g.A or g.p.x5 = g.E) and g.p.x6 = g.G)) or g.p.x0 = g.A and (g.p.x1 = g.A and g.p.x2 = g.B) and ((g.p.x3 = g.B or g.p.x3 = g.D) and (g.p.x4 = g.A or g.p.x4 = g.E) and (g.p.x5 = g.C and g.p.x6 = g.G)) or (g.p.x0 = g.A and (g.p.x1 = g.A and g.p.x2 = g.B) and ((g.p.x3 = g.B or g.p.x3 = g.D) and (g.p.x4 = g.A or g.p.x4 = g.E) and ((g.p.x5 = g.B or g.p.x5 = g.D) and g.p.x6 = g.G)) or g.p.x0 = g.A and (g.p.x1 = g.A and g.p.x2 = g.B) and ((g.p.x3 = g.B or g.p.x3 = g.D) and g.p.x4 = g.C and ((g.p.x5 = g.A or g.p.x5 = g.E) and g.p.x6 = g.G))) or (g.p.x0 = g.A and (g.p.x1 = g.A and g.p.x2 = g.B) and ((g.p.x3 = g.B or g.p.x3 = g.D) and g.p.x4 = g.C and (g.p.x5 = g.C and g.p.x6 = g.G)) or g.p.x0 = g.A and (g.p.x1 = g.A and g.p.x2 = g.B) and ((g.p.x3 = g.B or g.p.x3 = g.D) and g.p.x4 = g.C and ((g.p.x5 = g.B or g.p.x5 = g.D) and g.p.x6 = g.G)) or (g.p.x0 = g.A and (g.p.x1 = g.A and g.p.x2 = g.B) and ((g.p.x3 = g.B or g.p.x3 = g.D) and (g.p.x4 = g.B or g.p.x4 = g.D) and ((g.p.x5 = g.A or g.p.x5 = g.E) and g.p.x6 = g.G)) or (g.p.x0 = g.A and (g.p.x1 = g.A and g.p.x2 = g.B) and ((g.p.x3 = g.B or g.p.x3 = g.D) and (g.p.x4 = g.B or g.p.x4 = g.D) and (g.p.x5 = g.C and g.p.x6 = g.G)) or g.p.x0 = g.A and (g.p.x1 = g.A and g.p.x2 = g.B) and ((g.p.x3 = g.B or g.p.x3 = g.D) and (g.p.x4 = g.B or g.p.x4 = g.D) and ((g.p.x5 = g.B or g.p.x5 = g.D) and g.p.x6 = g.G)))))) -> g.p.x0 = g.A and (g.p.x1 = g.A and g.p.x2 = g.B) and (g.p.x3 = g.D and (g.p.x4 = g.A or g.p.x4 = g.B) and ((g.p.x5 = g.A or g.p.x5 = g.E) and g.p.x6 = g.G)) or g.p.x0 = g.A and (g.p.x1 = g.A and g.p.x2 = g.B) and (g.p.x3 = g.D and (g.p.x4 = g.A or g.p.x4 = g.B) and ((g.p.x5 = g.B or g.p.x5 = g.D) and g.p.x6 = g.G)) [restricted to current/previous controlled-behavior predicate: (g.p.x0 = g.A or g.p.x0 = g.E) and (g.p.x1 = g.A and g.p.x2 = g.B) and (g.p.x3 = g.D and (g.p.x4 = g.A or g.p.x4 = g.B) and ((g.p.x5 = g.A or g.p.x5 = g.E) and g.p.x6 != g.G)) or ((g.p.x0 = g.A or g.p.x0 = g.E) and (g.p.x1 = g.A and g.p.x2 = g.B) and (g.p.x3 = g.D and (g.p.x4 = g.A or g.p.x4 = g.B) and ((g.p.x5 = g.A or g.p.x5 = g.E) and g.p.x6 = g.G)) or (g.p.x0 = g.A or g.p.x0 = g.E) and (g.p.x1 = g.A and g.p.x2 = g.B) and (g.p.x3 = g.D and (g.p.x4 = g.A or g.p.x4 = g.B) and ((g.p.x5 = g.B or g.p.x5 = g.D) and g.p.x6 != g.G))) or ((g.p.x0 = g.A or g.p.x0 = g.E) and (g.p.x1 = g.A and g.p.x2 = g.B) and (g.p.x3 = g.D and (g.p.x4 = g.A or g.p.x4 = g.B) and ((g.p.x5 = g.B or g.p.x5 = g.D) and g.p.x6 = g.G)) or (g.p.x0 = g.C and (g.p.x1 = g.A and g.p.x2 = g.B) and (g.p.x3 = g.D and (g.p.x4 = g.A or g.p.x4 = g.B) and ((g.p.x5 = g.A or g.p.x5 = g.E) and g.p.x6 != g.G)) or g.p.x0 = g.C and (g.p.x1 = g.A and g.p.x2 = g.B) and (g.p.x3 = g.D and (g.p.x4 = g.A or g.p.x4 = g.B) and ((g.p.x5 = g.A or g.p.x5 = g.E) and g.p.x6 = g.G)))) or (g.p.x0 = g.C and (g.p.x1 = g.A and g.p.x2 = g.B) and (g.p.x3 = g.D and (g.p.x4 = g.A or g.p.x4 = g.B) and ((g.p.x5 = g.B or g.p.x5 = g.D) and g.p.x6 != g.G)) or (g.p.x0 = g.C and (g.p.x1 = g.A and g.p.x2 = g.B) and (g.p.x3 = g.D and (g.p.x4 = g.A or g.p.x4 = g.B) and ((g.p.x5 = g.B or g.p.x5 = g.D) and g.p.x6 = g.G)) or (g.p.x0 = g.B or g.p.x0 = g.D) and (g.p.x1 = g.A and g.p.x2 = g.B) and (g.p.x3 = g.D and (g.p.x4 = g.A or g.p.x4 = g.B) and ((g.p.x5 = g.A or g.p.x5 = g.E) and g.p.x6 != g.G))) or ((g.p.x0 = g.B or g.p.x0 = g.D) and (g.p.x1 = g.A and g.p.x2 = g.B) and (g.p.x3 = g.D and (g.p.x4 = g.A or g.p.x4 = g.B) and ((g.p.x5 = g.A or g.p.x5 = g.E) and g.p.x6 = g.G)) or ((g.p.x0 = g.B or g.p.x0 = g.D) and (g.p.x1 = g.A and g.p.x2 = g.B) and (g.p.x3 = g.D and (g.p.x4 = g.A or g.p.x4 = g.B) and ((g.p.x5 = g.B or g.p.x5 = g.D) and g.p.x6 != g.G)) or (g.p.x0 = g.B or g.p.x0 = g.D) and (g.p.x1 = g.A and g.p.x2 = g.B) and (g.p.x3 = g.D and (g.p.x4 = g.A or g.p.x4 = g.B) and ((g.p.x5 = g.B or g.p.x5 = g.D) and g.p.x6 = g.G)))))]
Forward reachability: iteration 1.
Forward controlled-behavior: g.p.x0 = g.A and (g.p.x1 = g.A and g.p.x2 = g.B) and (g.p.x3 = g.D and (g.p.x4 = g.A or g.p.x4 = g.B) and ((g.p.x5 = g.A or g.p.x5 = g.E) and g.p.x6 = g.G)) or g.p.x0 = g.A and (g.p.x1 = g.A and g.p.x2 = g.B) and (g.p.x3 = g.D and (g.p.x4 = g.A or g.p.x4 = g.B) and ((g.p.x5 = g.B or g.p.x5 = g.D) and g.p.x6 = g.G)) -> (g.p.x0 = g.A or g.p.x0 = g.B) and (g.p.x1 = g.A and g.p.x2 = g.B) and (g.p.x3 = g.D and (g.p.x4 = g.A or g.p.x4 = g.B) and ((g.p.x5 = g.A or g.p.x5 = g.E) and g.p.x6 = g.G)) or (g.p.x0 = g.A or g.p.x0 = g.B) and (g.p.x1 = g.A and g.p.x2 = g.B) and (g.p.x3 = g.D and (g.p.x4 = g.A or g.p.x4 = g.B) and ((g.p.x5 = g.B or g.p.x5 = g.D) and g.p.x6 = g.G)) [forward reach with edge: (event: g.e1) (guard: g.p.x0 = g.A) (assignments: g.p.x0 := g.B), restricted to current/previous controlled-behavior predicate: (g.p.x0 = g.A or g.p.x0 = g.E) and (g.p.x1 = g.A and g.p.x2 = g.B) and (g.p.x3 = g.D and (g.p.x4 = g.A or g.p.x4 = g.B) and ((g.p.x5 = g.A or g.p.x5 = g.E) and g.p.x6 != g.G)) or ((g.p.x0 = g.A or g.p.x0 = g.E) and (g.p.x1 = g.A and g.p.x2 = g.B) and (g.p.x3 = g.D and (g.p.x4 = g.A or g.p.x4 = g.B) and ((g.p.x5 = g.A or g.p.x5 = g.E) and g.p.x6 = g.G)) or (g.p.x0 = g.A or g.p.x0 = g.E) and (g.p.x1 = g.A and g.p.x2 = g.B) and (g.p.x3 = g.D and (g.p.x4 = g.A or g.p.x4 = g.B) and ((g.p.x5 = g.B or g.p.x5 = g.D) and g.p.x6 != g.G))) or ((g.p.x0 = g.A or g.p.x0 = g.E) and (g.p.x1 = g.A and g.p.x2 = g.B) and (g.p.x3 = g.D and (g.p.x4 = g.A or g.p.x4 = g.B) and ((g.p.x5 = g.B or g.p.x5 = g.D) and g.p.x6 = g.G)) or (g.p.x0 = g.C and (g.p.x1 = g.A and g.p.x2 = g.B) and (g.p.x3 = g.D and (g.p.x4 = g.A or g.p.x4 = g.B) and ((g.p.x5 = g.A or g.p.x5 = g.E) and g.p.x6 != g.G)) or g.p.x0 = g.C and (g.p.x1 = g.A and g.p.x2 = g.B) and (g.p.x3 = g.D and (g.p.x4 = g.A or g.p.x4 = g.B) and ((g.p.x5 = g.A or g.p.x5 = g.E) and g.p.x6 = g.G)))) or (g.p.x0 = g.C and (g.p.x1 = g.A and g.p.x2 = g.B) and (g.p.x3 = g.D and (g.p.x4 = g.A or g.p.x4 = g.B) and ((g.p.x5 = g.B or g.p.x5 = g.D) and g.p.x6 != g.G)) or (g.p.x0 = g.C and (g.p.x1 = g.A and g.p.x2 = g.B) and (g.p.x3 = g.D and (g.p.x4 = g.A or g.p.x4 = g.B) and ((g.p.x5 = g.B or g.p.x5 = g.D) and g.p.x6 = g.G)) or (g.p.x0 = g.B or g.p.x0 = g.D) and (g.p.x1 = g.A and g.p.x2 = g.B) and (g.p.x3 = g.D and (g.p.x4 = g.A or g.p.x4 = g.B) and ((g.p.x5 = g.A or g.p.x5 = g.E) and g.p.x6 != g.G))) or ((g.p.x0 = g.B or g.p.x0 = g.D) and (g.p.x1 = g.A and g.p.x2 = g.B) and (g.p.x3 = g.D and (g.p.x4 = g.A or g.p.x4 = g.B) and ((g.p.x5 = g.A or g.p.x5 = g.E) and g.p.x6 = g.G)) or ((g.p.x0 = g.B or g.p.x0 = g.D) and (g.p.x1 = g.A and g.p.x2 = g.B) and (g.p.x3 = g.D and (g.p.x4 = g.A or g.p.x4 = g.B) and ((g.p.x5 = g.B or g.p.x5 = g.D) and g.p.x6 != g.G)) or (g.p.x0 = g.B or g.p.x0 = g.D) and (g.p.x1 = g.A and g.p.x2 = g.B) and (g.p.x3 = g.D and (g.p.x4 = g.A or g.p.x4 = g.B) and ((g.p.x5 = g.B or g.p.x5 = g.D) and g.p.x6 = g.G)))))]
Forward controlled-behavior: (g.p.x0 = g.A or g.p.x0 = g.B) and (g.p.x1 = g.A and g.p.x2 = g.B) and (g.p.x3 = g.D and (g.p.x4 = g.A or g.p.x4 = g.B) and ((g.p.x5 = g.A or g.p.x5 = g.E) and g.p.x6 = g.G)) or (g.p.x0 = g.A or g.p.x0 = g.B) and (g.p.x1 = g.A and g.p.x2 = g.B) and (g.p.x3 = g.D and (g.p.x4 = g.A or g.p.x4 = g.B) and ((g.p.x5 = g.B or g.p.x5 = g.D) and g.p.x6 = g.G)) -> (g.p.x0 = g.A or g.p.x0 = g.C) and (g.p.x1 = g.A and g.p.x2 = g.B) and (g.p.x3 = g.D and (g.p.x4 = g.A or g.p.x4 = g.B) and ((g.p.x5 = g.A or g.p.x5 = g.E) and g.p.x6 = g.G)) or (g.p.x0 = g.A or g.p.x0 = g.C) and (g.p.x1 = g.A and g.p.x2 = g.B) and (g.p.x3 = g.D and (g.p.x4 = g.A or g.p.x4 = g.B) and ((g.p.x5 = g.B or g.p.x5 = g.D) and g.p.x6 = g.G)) or (g.p.x0 = g.B and (g.p.x1 = g.A and g.p.x2 = g.B) and (g.p.x3 = g.D and (g.p.x4 = g.A or g.p.x4 = g.B) and ((g.p.x5 = g.A or g.p.x5 = g.E) and g.p.x6 = g.G)) or g.p.x0 = g.B and (g.p.x1 = g.A and g.p.x2 = g.B) and (g.p.x3 = g.D and (g.p.x4 = g.A or g.p.x4 = g.B) and ((g.p.x5 = g.B or g.p.x5 = g.D) and g.p.x6 = g.G))) [forward reach with edge: (event: g.e1) (guard: g.p.x0 = g.B) (assignments: g.p.x0 := g.C), restricted to current/previous controlled-behavior predicate: (g.p.x0 = g.A or g.p.x0 = g.E) and (g.p.x1 = g.A and g.p.x2 = g.B) and (g.p.x3 = g.D and (g.p.x4 = g.A or g.p.x4 = g.B) and ((g.p.x5 = g.A or g.p.x5 = g.E) and g.p.x6 != g.G)) or ((g.p.x0 = g.A or g.p.x0 = g.E) and (g.p.x1 = g.A and g.p.x2 = g.B) and (g.p.x3 = g.D and (g.p.x4 = g.A or g.p.x4 = g.B) and ((g.p.x5 = g.A or g.p.x5 = g.E) and g.p.x6 = g.G)) or (g.p.x0 = g.A or g.p.x0 = g.E) and (g.p.x1 = g.A and g.p.x2 = g.B) and (g.p.x3 = g.D and (g.p.x4 = g.A or g.p.x4 = g.B) and ((g.p.x5 = g.B or g.p.x5 = g.D) and g.p.x6 != g.G))) or ((g.p.x0 = g.A or g.p.x0 = g.E) and (g.p.x1 = g.A and g.p.x2 = g.B) and (g.p.x3 = g.D and (g.p.x4 = g.A or g.p.x4 = g.B) and ((g.p.x5 = g.B or g.p.x5 = g.D) and g.p.x6 = g.G)) or (g.p.x0 = g.C and (g.p.x1 = g.A and g.p.x2 = g.B) and (g.p.x3 = g.D and (g.p.x4 = g.A or g.p.x4 = g.B) and ((g.p.x5 = g.A or g.p.x5 = g.E) and g.p.x6 != g.G)) or g.p.x0 = g.C and (g.p.x1 = g.A and g.p.x2 = g.B) and (g.p.x3 = g.D and (g.p.x4 = g.A or g.p.x4 = g.B) and ((g.p.x5 = g.A or g.p.x5 = g.E) and g.p.x6 = g.G)))) or (g.p.x0 = g.C and (g.p.x1 = g.A and g.p.x2 = g.B) and (g.p.x3 = g.D and (g.p.x4 = g.A or g.p.x4 = g.B) and ((g.p.x5 = g.B or g.p.x5 = g.D) and g.p.x6 != g.G)) or (g.p.x0 = g.C and (g.p.x1 = g.A and g.p.x2 = g.B) and (g.p.x3 = g.D and (g.p.x4 = g.A or g.p.x4 = g.B) and ((g.p.x5 = g.B or g.p.x5 = g.D) and g.p.x6 = g.G)) or (g.p.x0 = g.B or g.p.x0 = g.D) and (g.p.x1 = g.A and g.p.x2 = g.B) and (g.p.x3 = g.D and (g.p.x4 = g.A or g.p.x4 = g.B) and ((g.p.x5 = g.A or g.p.x5 = g.E) and g.p.x6 != g.G))) or ((g.p.x0 = g.B or g.p.x0 = g.D) and (g.p.x1 = g.A and g.p.x2 = g.B) and (g.p.x3 = g.D and (g.p.x4 = g.A or g.p.x4 = g.B) and ((g.p.x5 = g.A or g.p.x5 = g.E) and g.p.x6 = g.G)) or ((g.p.x0 = g.B or g.p.x0 = g.D) and (g.p.x1 = g.A and g.p.x2 = g.B) and (g.p.x3 = g.D and (g.p.x4 = g.A or g.p.x4 = g.B) and ((g.p.x5 = g.B or g.p.x5 = g.D) and g.p.x6 != g.G)) or (g.p.x0 = g.B or g.p.x0 = g.D) and (g.p.x1 = g.A and g.p.x2 = g.B) and (g.p.x3 = g.D and (g.p.x4 = g.A or g.p.x4 = g.B) and ((g.p.x5 = g.B or g.p.x5 = g.D) and g.p.x6 = g.G)))))]
Forward controlled-behavior: (g.p.x0 = g.A or g.p.x0 = g.C) and (g.p.x1 = g.A and g.p.x2 = g.B) and (g.p.x3 = g.D and (g.p.x4 = g.A or g.p.x4 = g.B) and ((g.p.x5 = g.A or g.p.x5 = g.E) and g.p.x6 = g.G)) or (g.p.x0 = g.A or g.p.x0 = g.C) and (g.p.x1 = g.A and g.p.x2 = g.B) and (g.p.x3 = g.D and (g.p.x4 = g.A or g.p.x4 = g.B) and ((g.p.x5 = g.B or g.p.x5 = g.D) and g.p.x6 = g.G)) or (g.p.x0 = g.B and (g.p.x1 = g.A and g.p.x2 = g.B) and (g.p.x3 = g.D and (g.p.x4 = g.A or g.p.x4 = g.B) and ((g.p.x5 = g.A or g.p.x5 = g.E) and g.p.x6 = g.G)) or g.p.x0 = g.B and (g.p.x1 = g.A and g.p.x2 = g.B) and (g.p.x3 = g.D and (g.p.x4 = g.A or g.p.x4 = g.B) and ((g.p.x5 = g.B or g.p.x5 = g.D) and g.p.x6 = g.G))) -> g.p.x0 != g.E and (g.p.x1 = g.A and g.p.x2 = g.B) and (g.p.x3 = g.D and (g.p.x4 = g.A or g.p.x4 = g.B) and ((g.p.x5 = g.A or g.p.x5 = g.E) and g.p.x6 = g.G)) or g.p.x0 != g.E and (g.p.x1 = g.A and g.p.x2 = g.B) and (g.p.x3 = g.D and (g.p.x4 = g.A or g.p.x4 = g.B) and ((g.p.x5 = g.B or g.p.x5 = g.D) and g.p.x6 = g.G)) [forward reach with edge: (event: g.e1) (guard: g.p.x0 = g.C) (assignments: g.p.x0 := g.D), restricted to current/previous controlled-behavior predicate: (g.p.x0 = g.A or g.p.x0 = g.E) and (g.p.x1 = g.A and g.p.x2 = g.B) and (g.p.x3 = g.D and (g.p.x4 = g.A or g.p.x4 = g.B) and ((g.p.x5 = g.A or g.p.x5 = g.E) and g.p.x6 != g.G)) or ((g.p.x0 = g.A or g.p.x0 = g.E) and (g.p.x1 = g.A and g.p.x2 = g.B) and (g.p.x3 = g.D and (g.p.x4 = g.A or g.p.x4 = g.B) and ((g.p.x5 = g.A or g.p.x5 = g.E) and g.p.x6 = g.G)) or (g.p.x0 = g.A or g.p.x0 = g.E) and (g.p.x1 = g.A and g.p.x2 = g.B) and (g.p.x3 = g.D and (g.p.x4 = g.A or g.p.x4 = g.B) and ((g.p.x5 = g.B or g.p.x5 = g.D) and g.p.x6 != g.G))) or ((g.p.x0 = g.A or g.p.x0 = g.E) and (g.p.x1 = g.A and g.p.x2 = g.B) and (g.p.x3 = g.D and (g.p.x4 = g.A or g.p.x4 = g.B) and ((g.p.x5 = g.B or g.p.x5 = g.D) and g.p.x6 = g.G)) or (g.p.x0 = g.C and (g.p.x1 = g.A and g.p.x2 = g.B) and (g.p.x3 = g.D and (g.p.x4 = g.A or g.p.x4 = g.B) and ((g.p.x5 = g.A or g.p.x5 = g.E) and g.p.x6 != g.G)) or g.p.x0 = g.C and (g.p.x1 = g.A and g.p.x2 = g.B) and (g.p.x3 = g.D and (g.p.x4 = g.A or g.p.x4 = g.B) and ((g.p.x5 = g.A or g.p.x5 = g.E) and g.p.x6 = g.G)))) or (g.p.x0 = g.C and (g.p.x1 = g.A and g.p.x2 = g.B) and (g.p.x3 = g.D and (g.p.x4 = g.A or g.p.x4 = g.B) and ((g.p.x5 = g.B or g.p.x5 = g.D) and g.p.x6 != g.G)) or (g.p.x0 = g.C and (g.p.x1 = g.A and g.p.x2 = g.B) and (g.p.x3 = g.D and (g.p.x4 = g.A or g.p.x4 = g.B) and ((g.p.x5 = g.B or g.p.x5 = g.D) and g.p.x6 = g.G)) or (g.p.x0 = g.B or g.p.x0 = g.D) and (g.p.x1 = g.A and g.p.x2 = g.B) and (g.p.x3 = g.D and (g.p.x4 = g.A or g.p.x4 = g.B) and ((g.p.x5 = g.A or g.p.x5 = g.E) and g.p.x6 != g.G))) or ((g.p.x0 = g.B or g.p.x0 = g.D) and (g.p.x1 = g.A and g.p.x2 = g.B) and (g.p.x3 = g.D and (g.p.x4 = g.A or g.p.x4 = g.B) and ((g.p.x5 = g.A or g.p.x5 = g.E) and g.p.x6 = g.G)) or ((g.p.x0 = g.B or g.p.x0 = g.D) and (g.p.x1 = g.A and g.p.x2 = g.B) and (g.p.x3 = g.D and (g.p.x4 = g.A or g.p.x4 = g.B) and ((g.p.x5 = g.B or g.p.x5 = g.D) and g.p.x6 != g.G)) or (g.p.x0 = g.B or g.p.x0 = g.D) and (g.p.x1 = g.A and g.p.x2 = g.B) and (g.p.x3 = g.D and (g.p.x4 = g.A or g.p.x4 = g.B) and ((g.p.x5 = g.B or g.p.x5 = g.D) and g.p.x6 = g.G)))))]
Forward controlled-behavior: g.p.x0 != g.E and (g.p.x1 = g.A and g.p.x2 = g.B) and (g.p.x3 = g.D and (g.p.x4 = g.A or g.p.x4 = g.B) and ((g.p.x5 = g.A or g.p.x5 = g.E) and g.p.x6 = g.G)) or g.p.x0 != g.E and (g.p.x1 = g.A and g.p.x2 = g.B) and (g.p.x3 = g.D and (g.p.x4 = g.A or g.p.x4 = g.B) and ((g.p.x5 = g.B or g.p.x5 = g.D) and g.p.x6 = g.G)) -> (g.p.x0 = g.A or g.p.x0 = g.E) and (g.p.x1 = g.A and g.p.x2 = g.B) and (g.p.x3 = g.D and (g.p.x4 = g.A or g.p.x4 = g.B) and ((g.p.x5 = g.A or g.p.x5 = g.E) and g.p.x6 = g.G)) or ((g.p.x0 = g.A or g.p.x0 = g.E) and (g.p.x1 = g.A and g.p.x2 = g.B) and (g.p.x3 = g.D and (g.p.x4 = g.A or g.p.x4 = g.B) and ((g.p.x5 = g.B or g.p.x5 = g.D) and g.p.x6 = g.G)) or g.p.x0 = g.C and (g.p.x1 = g.A and g.p.x2 = g.B) and (g.p.x3 = g.D and (g.p.x4 = g.A or g.p.x4 = g.B) and ((g.p.x5 = g.A or g.p.x5 = g.E) and g.p.x6 = g.G))) or (g.p.x0 = g.C and (g.p.x1 = g.A and g.p.x2 = g.B) and (g.p.x3 = g.D and (g.p.x4 = g.A or g.p.x4 = g.B) and ((g.p.x5 = g.B or g.p.x5 = g.D) and g.p.x6 = g.G)) or ((g.p.x0 = g.B or g.p.x0 = g.D) and (g.p.x1 = g.A and g.p.x2 = g.B) and (g.p.x3 = g.D and (g.p.x4 = g.A or g.p.x4 = g.B) and ((g.p.x5 = g.A or g.p.x5 = g.E) and g.p.x6 = g.G)) or (g.p.x0 = g.B or g.p.x0 = g.D) and (g.p.x1 = g.A and g.p.x2 = g.B) and (g.p.x3 = g.D and (g.p.x4 = g.A or g.p.x4 = g.B) and ((g.p.x5 = g.B or g.p.x5 = g.D) and g.p.x6 = g.G)))) [forward reach with edge: (event: g.e1) (guard: g.p.x0 = g.D) (assignments: g.p.x0 := g.E), restricted to current/previous controlled-behavior predicate: (g.p.x0 = g.A or g.p.x0 = g.E) and (g.p.x1 = g.A and g.p.x2 = g.B) and (g.p.x3 = g.D and (g.p.x4 = g.A or g.p.x4 = g.B) and ((g.p.x5 = g.A or g.p.x5 = g.E) and g.p.x6 != g.G)) or ((g.p.x0 = g.A or g.p.x0 = g.E) and (g.p.x1 = g.A and g.p.x2 = g.B) and (g.p.x3 = g.D and (g.p.x4 = g.A or g.p.x4 = g.B) and ((g.p.x5 = g.A or g.p.x5 = g.E) and g.p.x6 = g.G)) or (g.p.x0 = g.A or g.p.x0 = g.E) and (g.p.x1 = g.A and g.p.x2 = g.B) and (g.p.x3 = g.D and (g.p.x4 = g.A or g.p.x4 = g.B) and ((g.p.x5 = g.B or g.p.x5 = g.D) and g.p.x6 != g.G))) or ((g.p.x0 = g.A or g.p.x0 = g.E) and (g.p.x1 = g.A and g.p.x2 = g.B) and (g.p.x3 = g.D and (g.p.x4 = g.A or g.p.x4 = g.B) and ((g.p.x5 = g.B or g.p.x5 = g.D) and g.p.x6 = g.G)) or (g.p.x0 = g.C and (g.p.x1 = g.A and g.p.x2 = g.B) and (g.p.x3 = g.D and (g.p.x4 = g.A or g.p.x4 = g.B) and ((g.p.x5 = g.A or g.p.x5 = g.E) and g.p.x6 != g.G)) or g.p.x0 = g.C and (g.p.x1 = g.A and g.p.x2 = g.B) and (g.p.x3 = g.D and (g.p.x4 = g.A or g.p.x4 = g.B) and ((g.p.x5 = g.A or g.p.x5 = g.E) and g.p.x6 = g.G)))) or (g.p.x0 = g.C and (g.p.x1 = g.A and g.p.x2 = g.B) and (g.p.x3 = g.D and (g.p.x4 = g.A or g.p.x4 = g.B) and ((g.p.x5 = g.B or g.p.x5 = g.D) and g.p.x6 != g.G)) or (g.p.x0 = g.C and (g.p.x1 = g.A and g.p.x2 = g.B) and (g.p.x3 = g.D and (g.p.x4 = g.A or g.p.x4 = g.B) and ((g.p.x5 = g.B or g.p.x5 = g.D) and g.p.x6 = g.G)) or (g.p.x0 = g.B or g.p.x0 = g.D) and (g.p.x1 = g.A and g.p.x2 = g.B) and (g.p.x3 = g.D and (g.p.x4 = g.A or g.p.x4 = g.B) and ((g.p.x5 = g.A or g.p.x5 = g.E) and g.p.x6 != g.G))) or ((g.p.x0 = g.B or g.p.x0 = g.D) and (g.p.x1 = g.A and g.p.x2 = g.B) and (g.p.x3 = g.D and (g.p.x4 = g.A or g.p.x4 = g.B) and ((g.p.x5 = g.A or g.p.x5 = g.E) and g.p.x6 = g.G)) or ((g.p.x0 = g.B or g.p.x0 = g.D) and (g.p.x1 = g.A and g.p.x2 = g.B) and (g.p.x3 = g.D and (g.p.x4 = g.A or g.p.x4 = g.B) and ((g.p.x5 = g.B or g.p.x5 = g.D) and g.p.x6 != g.G)) or (g.p.x0 = g.B or g.p.x0 = g.D) and (g.p.x1 = g.A and g.p.x2 = g.B) and (g.p.x3 = g.D and (g.p.x4 = g.A or g.p.x4 = g.B) and ((g.p.x5 = g.B or g.p.x5 = g.D) and g.p.x6 = g.G)))))]
Forward reachability: iteration 2.
Forward controlled-behavior: (g.p.x0 = g.A or g.p.x0 = g.E) and (g.p.x1 = g.A and g.p.x2 = g.B) and (g.p.x3 = g.D and (g.p.x4 = g.A or g.p.x4 = g.B) and ((g.p.x5 = g.A or g.p.x5 = g.E) and g.p.x6 = g.G)) or ((g.p.x0 = g.A or g.p.x0 = g.E) and (g.p.x1 = g.A and g.p.x2 = g.B) and (g.p.x3 = g.D and (g.p.x4 = g.A or g.p.x4 = g.B) and ((g.p.x5 = g.B or g.p.x5 = g.D) and g.p.x6 = g.G)) or g.p.x0 = g.C and (g.p.x1 = g.A and g.p.x2 = g.B) and (g.p.x3 = g.D and (g.p.x4 = g.A or g.p.x4 = g.B) and ((g.p.x5 = g.A or g.p.x5 = g.E) and g.p.x6 = g.G))) or (g.p.x0 = g.C and (g.p.x1 = g.A and g.p.x2 = g.B) and (g.p.x3 = g.D and (g.p.x4 = g.A or g.p.x4 = g.B) and ((g.p.x5 = g.B or g.p.x5 = g.D) and g.p.x6 = g.G)) or ((g.p.x0 = g.B or g.p.x0 = g.D) and (g.p.x1 = g.A and g.p.x2 = g.B) and (g.p.x3 = g.D and (g.p.x4 = g.A or g.p.x4 = g.B) and ((g.p.x5 = g.A or g.p.x5 = g.E) and g.p.x6 = g.G)) or (g.p.x0 = g.B or g.p.x0 = g.D) and (g.p.x1 = g.A and g.p.x2 = g.B) and (g.p.x3 = g.D and (g.p.x4 = g.A or g.p.x4 = g.B) and ((g.p.x5 = g.B or g.p.x5 = g.D) and g.p.x6 = g.G)))) [fixed point].
Controlled behavior: (g.p.x0 = g.A or g.p.x0 = g.E) and (g.p.x1 = g.A and g.p.x2 = g.B) and (g.p.x3 = g.D and (g.p.x4 = g.A or g.p.x4 = g.B) and ((g.p.x5 = g.A or g.p.x5 = g.E) and g.p.x6 != g.G)) or ((g.p.x0 = g.A or g.p.x0 = g.E) and (g.p.x1 = g.A and g.p.x2 = g.B) and (g.p.x3 = g.D and (g.p.x4 = g.A or g.p.x4 = g.B) and ((g.p.x5 = g.A or g.p.x5 = g.E) and g.p.x6 = g.G)) or (g.p.x0 = g.A or g.p.x0 = g.E) and (g.p.x1 = g.A and g.p.x2 = g.B) and (g.p.x3 = g.D and (g.p.x4 = g.A or g.p.x4 = g.B) and ((g.p.x5 = g.B or g.p.x5 = g.D) and g.p.x6 != g.G))) or ((g.p.x0 = g.A or g.p.x0 = g.E) and (g.p.x1 = g.A and g.p.x2 = g.B) and (g.p.x3 = g.D and (g.p.x4 = g.A or g.p.x4 = g.B) and ((g.p.x5 = g.B or g.p.x5 = g.D) and g.p.x6 = g.G)) or (g.p.x0 = g.C and (g.p.x1 = g.A and g.p.x2 = g.B) and (g.p.x3 = g.D and (g.p.x4 = g.A or g.p.x4 = g.B) and ((g.p.x5 = g.A or g.p.x5 = g.E) and g.p.x6 != g.G)) or g.p.x0 = g.C and (g.p.x1 = g.A and g.p.x2 = g.B) and (g.p.x3 = g.D and (g.p.x4 = g.A or g.p.x4 = g.B) and ((g.p.x5 = g.A or g.p.x5 = g.E) and g.p.x6 = g.G)))) or (g.p.x0 = g.C and (g.p.x1 = g.A and g.p.x2 = g.B) and (g.p.x3 = g.D and (g.p.x4 = g.A or g.p.x4 = g.B) and ((g.p.x5 = g.B or g.p.x5 = g.D) and g.p.x6 != g.G)) or (g.p.x0 = g.C and (g.p.x1 = g.A and g.p.x2 = g.B) and (g.p.x3 = g.D and (g.p.x4 = g.A or g.p.x4 = g.B) and ((g.p.x5 = g.B or g.p.x5 = g.D) and g.p.x6 = g.G)) or (g.p.x0 = g.B or g.p.x0 = g.D) and (g.p.x1 = g.A and g.p.x2 = g.B) and (g.p.x3 = g.D and (g.p.x4 = g.A or g.p.x4 = g.B) and ((g.p.x5 = g.A or g.p.x5 = g.E) and g.p.x6 != g.G))) or ((g.p.x0 = g.B or g.p.x0 = g.D) and (g.p.x1 = g.A and g.p.x2 = g.B) and (g.p.x3 = g.D and (g.p.x4 = g.A or g.p.x4 = g.B) and ((g.p.x5 = g.A or g.p.x5 = g.E) and g.p.x6 = g.G)) or ((g.p.x0 = g.B or g.p.x0 = g.D) and (g.p.x1 = g.A and g.p.x2 = g.B) and (g.p.x3 = g.D and (g.p.x4 = g.A or g.p.x4 = g.B) and ((g.p.x5 = g.B or g.p.x5 = g.D) and g.p.x6 != g.G)) or (g.p.x0 = g.B or g.p.x0 = g.D) and (g.p.x1 = g.A and g.p.x2 = g.B) and (g.p.x3 = g.D and (g.p.x4 = g.A or g.p.x4 = g.B) and ((g.p.x5 = g.B or g.p.x5 = g.D) and g.p.x6 = g.G))))) -> (g.p.x0 = g.A or g.p.x0 = g.E) and (g.p.x1 = g.A and g.p.x2 = g.B) and (g.p.x3 = g.D and (g.p.x4 = g.A or g.p.x4 = g.B) and ((g.p.x5 = g.A or g.p.x5 = g.E) and g.p.x6 = g.G)) or ((g.p.x0 = g.A or g.p.x0 = g.E) and (g.p.x1 = g.A and g.p.x2 = g.B) and (g.p.x3 = g.D and (g.p.x4 = g.A or g.p.x4 = g.B) and ((g.p.x5 = g.B or g.p.x5 = g.D) and g.p.x6 = g.G)) or g.p.x0 = g.C and (g.p.x1 = g.A and g.p.x2 = g.B) and (g.p.x3 = g.D and (g.p.x4 = g.A or g.p.x4 = g.B) and ((g.p.x5 = g.A or g.p.x5 = g.E) and g.p.x6 = g.G))) or (g.p.x0 = g.C and (g.p.x1 = g.A and g.p.x2 = g.B) and (g.p.x3 = g.D and (g.p.x4 = g.A or g.p.x4 = g.B) and ((g.p.x5 = g.B or g.p.x5 = g.D) and g.p.x6 = g.G)) or ((g.p.x0 = g.B or g.p.x0 = g.D) and (g.p.x1 = g.A and g.p.x2 = g.B) and (g.p.x3 = g.D and (g.p.x4 = g.A or g.p.x4 = g.B) and ((g.p.x5 = g.A or g.p.x5 = g.E) and g.p.x6 = g.G)) or (g.p.x0 = g.B or g.p.x0 = g.D) and (g.p.x1 = g.A and g.p.x2 = g.B) and (g.p.x3 = g.D and (g.p.x4 = g.A or g.p.x4 = g.B) and ((g.p.x5 = g.B or g.p.x5 = g.D) and g.p.x6 = g.G)))).

Round 1: finished, need another round.

Round 2: started.

Round 2: computing backward controlled-behavior predicate.
Backward controlled-behavior: g.p.x0 = g.E and (g.p.x1 = g.A and g.p.x2 = g.B) and (g.p.x3 = g.D and (g.p.x4 = g.A and (g.p.x5 = g.A or g.p.x5 = g.E))) or g.p.x0 = g.E and (g.p.x1 = g.A and g.p.x2 = g.B) and (g.p.x3 = g.D and (g.p.x4 = g.A and (g.p.x5 = g.B or g.p.x5 = g.D))) or (g.p.x0 = g.E and (g.p.x1 = g.A and g.p.x2 = g.B) and (g.p.x3 = g.D and (g.p.x4 = g.B and (g.p.x5 = g.A or g.p.x5 = g.E))) or g.p.x0 = g.E and (g.p.x1 = g.A and g.p.x2 = g.B) and (g.p.x3 = g.D and (g.p.x4 = g.B and (g.p.x5 = g.B or g.p.x5 = g.D)))) [marker predicate]
Backward controlled-behavior: g.p.x0 = g.E and (g.p.x1 = g.A and g.p.x2 = g.B) and (g.p.x3 = g.D and (g.p.x4 = g.A and (g.p.x5 = g.A or g.p.x5 = g.E))) or g.p.x0 = g.E and (g.p.x1 = g.A and g.p.x2 = g.B) and (g.p.x3 = g.D and (g.p.x4 = g.A and (g.p.x5 = g.B or g.p.x5 = g.D))) or (g.p.x0 = g.E and (g.p.x1 = g.A and g.p.x2 = g.B) and (g.p.x3 = g.D and (g.p.x4 = g.B and (g.p.x5 = g.A or g.p.x5 = g.E))) or g.p.x0 = g.E and (g.p.x1 = g.A and g.p.x2 = g.B) and (g.p.x3 = g.D and (g.p.x4 = g.B and (g.p.x5 = g.B or g.p.x5 = g.D)))) -> g.p.x0 = g.E and (g.p.x1 = g.A and g.p.x2 = g.B) and (g.p.x3 = g.D and (g.p.x4 = g.A or g.p.x4 = g.B) and ((g.p.x5 = g.A or g.p.x5 = g.E) and g.p.x6 = g.G)) or g.p.x0 = g.E and (g.p.x1 = g.A and g.p.x2 = g.B) and (g.p.x3 = g.D and (g.p.x4 = g.A or g.p.x4 = g.B) and ((g.p.x5 = g.B or g.p.x5 = g.D) and g.p.x6 = g.G)) [restricted to current/previous controlled-behavior predicate: (g.p.x0 = g.A or g.p.x0 = g.E) and (g.p.x1 = g.A and g.p.x2 = g.B) and (g.p.x3 = g.D and (g.p.x4 = g.A or g.p.x4 = g.B) and ((g.p.x5 = g.A or g.p.x5 = g.E) and g.p.x6 = g.G)) or ((g.p.x0 = g.A or g.p.x0 = g.E) and (g.p.x1 = g.A and g.p.x2 = g.B) and (g.p.x3 = g.D and (g.p.x4 = g.A or g.p.x4 = g.B) and ((g.p.x5 = g.B or g.p.x5 = g.D) and g.p.x6 = g.G)) or g.p.x0 = g.C and (g.p.x1 = g.A and g.p.x2 = g.B) and (g.p.x3 = g.D and (g.p.x4 = g.A or g.p.x4 = g.B) and ((g.p.x5 = g.A or g.p.x5 = g.E) and g.p.x6 = g.G))) or (g.p.x0 = g.C and (g.p.x1 = g.A and g.p.x2 = g.B) and (g.p.x3 = g.D and (g.p.x4 = g.A or g.p.x4 = g.B) and ((g.p.x5 = g.B or g.p.x5 = g.D) and g.p.x6 = g.G)) or ((g.p.x0 = g.B or g.p.x0 = g.D) and (g.p.x1 = g.A and g.p.x2 = g.B) and (g.p.x3 = g.D and (g.p.x4 = g.A or g.p.x4 = g.B) and ((g.p.x5 = g.A or g.p.x5 = g.E) and g.p.x6 = g.G)) or (g.p.x0 = g.B or g.p.x0 = g.D) and (g.p.x1 = g.A and g.p.x2 = g.B) and (g.p.x3 = g.D and (g.p.x4 = g.A or g.p.x4 = g.B) and ((g.p.x5 = g.B or g.p.x5 = g.D) and g.p.x6 = g.G))))]
Backward reachability: iteration 1.
Backward controlled-behavior: g.p.x0 = g.E and (g.p.x1 = g.A and g.p.x2 = g.B) and (g.p.x3 = g.D and (g.p.x4 = g.A or g.p.x4 = g.B) and ((g.p.x5 = g.A or g.p.x5 = g.E) and g.p.x6 = g.G)) or g.p.x0 = g.E and (g.p.x1 = g.A and g.p.x2 = g.B) and (g.p.x3 = g.D and (g.p.x4 = g.A or g.p.x4 = g.B) and ((g.p.x5 = g.B or g.p.x5 = g.D) and g.p.x6 = g.G)) -> <bdd 21n 4p> [backward reach with edge: (event: g.e1) (guard: g.p.x0 = g.D) (assignments: g.p.x0 := g.E), restricted to current/previous controlled-behavior predicate: (g.p.x0 = g.A or g.p.x0 = g.E) and (g.p.x1 = g.A and g.p.x2 = g.B) and (g.p.x3 = g.D and (g.p.x4 = g.A or g.p.x4 = g.B) and ((g.p.x5 = g.A or g.p.x5 = g.E) and g.p.x6 = g.G)) or ((g.p.x0 = g.A or g.p.x0 = g.E) and (g.p.x1 = g.A and g.p.x2 = g.B) and (g.p.x3 = g.D and (g.p.x4 = g.A or g.p.x4 = g.B) and ((g.p.x5 = g.B or g.p.x5 = g.D) and g.p.x6 = g.G)) or g.p.x0 = g.C and (g.p.x1 = g.A and g.p.x2 = g.B) and (g.p.x3 = g.D and (g.p.x4 = g.A or g.p.x4 = g.B) and ((g.p.x5 = g.A or g.p.x5 = g.E) and g.p.x6 = g.G))) or (g.p.x0 = g.C and (g.p.x1 = g.A and g.p.x2 = g.B) and (g.p.x3 = g.D and (g.p.x4 = g.A or g.p.x4 = g.B) and ((g.p.x5 = g.B or g.p.x5 = g.D) and g.p.x6 = g.G)) or ((g.p.x0 = g.B or g.p.x0 = g.D) and (g.p.x1 = g.A and g.p.x2 = g.B) and (g.p.x3 = g.D and (g.p.x4 = g.A or g.p.x4 = g.B) and ((g.p.x5 = g.A or g.p.x5 = g.E) and g.p.x6 = g.G)) or (g.p.x0 = g.B or g.p.x0 = g.D) and (g.p.x1 = g.A and g.p.x2 = g.B) and (g.p.x3 = g.D and (g.p.x4 = g.A or g.p.x4 = g.B) and ((g.p.x5 = g.B or g.p.x5 = g.D) and g.p.x6 = g.G))))]
Backward reachability: iteration 2.
Backward controlled-behavior: <bdd 21n 4p> -> <bdd 21n 6p> [backward reach with edge: (event: g.e1) (guard: g.p.x0 = g.C) (assignments: g.p.x0 := g.D), restricted to current/previous controlled-behavior predicate: (g.p.x0 = g.A or g.p.x0 = g.E) and (g.p.x1 = g.A and g.p.x2 = g.B) and (g.p.x3 = g.D and (g.p.x4 = g.A or g.p.x4 = g.B) and ((g.p.x5 = g.A or g.p.x5 = g.E) and g.p.x6 = g.G)) or ((g.p.x0 = g.A or g.p.x0 = g.E) and (g.p.x1 = g.A and g.p.x2 = g.B) and (g.p.x3 = g.D and (g.p.x4 = g.A or g.p.x4 = g.B) and ((g.p.x5 = g.B or g.p.x5 = g.D) and g.p.x6 = g.G)) or g.p.x0 = g.C and (g.p.x1 = g.A and g.p.x2 = g.B) and (g.p.x3 = g.D and (g.p.x4 = g.A or g.p.x4 = g.B) and ((g.p.x5 = g.A or g.p.x5 = g.E) and g.p.x6 = g.G))) or (g.p.x0 = g.C and (g.p.x1 = g.A and g.p.x2 = g.B) and (g.p.x3 = g.D and (g.p.x4 = g.A or g.p.x4 = g.B) and ((g.p.x5 = g.B or g.p.x5 = g.D) and g.p.x6 = g.G)) or ((g.p.x0 = g.B or g.p.x0 = g.D) and (g.p.x1 = g.A and g.p.x2 = g.B) and (g.p.x3 = g.D and (g.p.x4 = g.A or g.p.x4 = g.B) and ((g.p.x5 = g.A or g.p.x5 = g.E) and g.p.x6 = g.G)) or (g.p.x0 = g.B or g.p.x0 = g.D) and (g.p.x1 = g.A and g.p.x2 = g.B) and (g.p.x3 = g.D and (g.p.x4 = g.A or g.p.x4 = g.B) and ((g.p.x5 = g.B or g.p.x5 = g.D) and g.p.x6 = g.G))))]
Backward reachability: iteration 3.
Backward controlled-behavior: <bdd 21n 6p> -> g.p.x0 = g.E and (g.p.x1 = g.A and g.p.x2 = g.B) and (g.p.x3 = g.D and (g.p.x4 = g.A or g.p.x4 = g.B) and ((g.p.x5 = g.A or g.p.x5 = g.E) and g.p.x6 = g.G)) or (g.p.x0 = g.E and (g.p.x1 = g.A and g.p.x2 = g.B) and (g.p.x3 = g.D and (g.p.x4 = g.A or g.p.x4 = g.B) and ((g.p.x5 = g.B or g.p.x5 = g.D) and g.p.x6 = g.G)) or g.p.x0 = g.C and (g.p.x1 = g.A and g.p.x2 = g.B) and (g.p.x3 = g.D and (g.p.x4 = g.A or g.p.x4 = g.B) and ((g.p.x5 = g.A or g.p.x5 = g.E) and g.p.x6 = g.G))) or (g.p.x0 = g.C and (g.p.x1 = g.A and g.p.x2 = g.B) and (g.p.x3 = g.D and (g.p.x4 = g.A or g.p.x4 = g.B) and ((g.p.x5 = g.B or g.p.x5 = g.D) and g.p.x6 = g.G)) or ((g.p.x0 = g.B or g.p.x0 = g.D) and (g.p.x1 = g.A and g.p.x2 = g.B) and (g.p.x3 = g.D and (g.p.x4 = g.A or g.p.x4 = g.B) and ((g.p.x5 = g.A or g.p.x5 = g.E) and g.p.x6 = g.G)) or (g.p.x0 = g.B or g.p.x0 = g.D) and (g.p.x1 = g.A and g.p.x2 = g.B) and (g.p.x3 = g.D and (g.p.x4 = g.A or g.p.x4 = g.B) and ((g.p.x5 = g.B or g.p.x5 = g.D) and g.p.x6 = g.G)))) [backward reach with edge: (event: g.e1) (guard: g.p.x0 = g.B) (assignments: g.p.x0 := g.C), restricted to current/previous controlled-behavior predicate: (g.p.x0 = g.A or g.p.x0 = g.E) and (g.p.x1 = g.A and g.p.x2 = g.B) and (g.p.x3 = g.D and (g.p.x4 = g.A or g.p.x4 = g.B) and ((g.p.x5 = g.A or g.p.x5 = g.E) and g.p.x6 = g.G)) or ((g.p.x0 = g.A or g.p.x0 = g.E) and (g.p.x1 = g.A and g.p.x2 = g.B) and (g.p.x3 = g.D and (g.p.x4 = g.A or g.p.x4 = g.B) and ((g.p.x5 = g.B or g.p.x5 = g.D) and g.p.x6 = g.G)) or g.p.x0 = g.C and (g.p.x1 = g.A and g.p.x2 = g.B) and (g.p.x3 = g.D and (g.p.x4 = g.A or g.p.x4 = g.B) and ((g.p.x5 = g.A or g.p.x5 = g.E) and g.p.x6 = g.G))) or (g.p.x0 = g.C and (g.p.x1 = g.A and g.p.x2 = g.B) and (g.p.x3 = g.D and (g.p.x4 = g.A or g.p.x4 = g.B) and ((g.p.x5 = g.B or g.p.x5 = g.D) and g.p.x6 = g.G)) or ((g.p.x0 = g.B or g.p.x0 = g.D) and (g.p.x1 = g.A and g.p.x2 = g.B) and (g.p.x3 = g.D and (g.p.x4 = g.A or g.p.x4 = g.B) and ((g.p.x5 = g.A or g.p.x5 = g.E) and g.p.x6 = g.G)) or (g.p.x0 = g.B or g.p.x0 = g.D) and (g.p.x1 = g.A and g.p.x2 = g.B) and (g.p.x3 = g.D and (g.p.x4 = g.A or g.p.x4 = g.B) and ((g.p.x5 = g.B or g.p.x5 = g.D) and g.p.x6 = g.G))))]
Backward reachability: iteration 4.
Backward controlled-behavior: g.p.x0 = g.E and (g.p.x1 = g.A and g.p.x2 = g.B) and (g.p.x3 = g.D and (g.p.x4 = g.A or g.p.x4 = g.B) and ((g.p.x5 = g.A or g.p.x5 = g.E) and g.p.x6 = g.G)) or (g.p.x0 = g.E and (g.p.x1 = g.A and g.p.x2 = g.B) and (g.p.x3 = g.D and (g.p.x4 = g.A or g.p.x4 = g.B) and ((g.p.x5 = g.B or g.p.x5 = g.D) and g.p.x6 = g.G)) or g.p.x0 = g.C and (g.p.x1 = g.A and g.p.x2 = g.B) and (g.p.x3 = g.D and (g.p.x4 = g.A or g.p.x4 = g.B) and ((g.p.x5 = g.A or g.p.x5 = g.E) and g.p.x6 = g.G))) or (g.p.x0 = g.C and (g.p.x1 = g.A and g.p.x2 = g.B) and (g.p.x3 = g.D and (g.p.x4 = g.A or g.p.x4 = g.B) and ((g.p.x5 = g.B or g.p.x5 = g.D) and g.p.x6 = g.G)) or ((g.p.x0 = g.B or g.p.x0 = g.D) and (g.p.x1 = g.A and g.p.x2 = g.B) and (g.p.x3 = g.D and (g.p.x4 = g.A or g.p.x4 = g.B) and ((g.p.x5 = g.A or g.p.x5 = g.E) and g.p.x6 = g.G)) or (g.p.x0 = g.B or g.p.x0 = g.D) and (g.p.x1 = g.A and g.p.x2 = g.B) and (g.p.x3 = g.D and (g.p.x4 = g.A or g.p.x4 = g.B) and ((g.p.x5 = g.B or g.p.x5 = g.D) and g.p.x6 = g.G)))) -> (g.p.x0 = g.A or g.p.x0 = g.E) and (g.p.x1 = g.A and g.p.x2 = g.B) and (g.p.x3 = g.D and (g.p.x4 = g.A or g.p.x4 = g.B) and ((g.p.x5 = g.A or g.p.x5 = g.E) and g.p.x6 = g.G)) or ((g.p.x0 = g.A or g.p.x0 = g.E) and (g.p.x1 = g.A and g.p.x2 = g.B) and (g.p.x3 = g.D and (g.p.x4 = g.A or g.p.x4 = g.B) and ((g.p.x5 = g.B or g.p.x5 = g.D) and g.p.x6 = g.G)) or g.p.x0 = g.C and (g.p.x1 = g.A and g.p.x2 = g.B) and (g.p.x3 = g.D and (g.p.x4 = g.A or g.p.x4 = g.B) and ((g.p.x5 = g.A or g.p.x5 = g.E) and g.p.x6 = g.G))) or (g.p.x0 = g.C and (g.p.x1 = g.A and g.p.x2 = g.B) and (g.p.x3 = g.D and (g.p.x4 = g.A or g.p.x4 = g.B) and ((g.p.x5 = g.B or g.p.x5 = g.D) and g.p.x6 = g.G)) or ((g.p.x0 = g.B or g.p.x0 = g.D) and (g.p.x1 = g.A and g.p.x2 = g.B) and (g.p.x3 = g.D and (g.p.x4 = g.A or g.p.x4 = g.B) and ((g.p.x5 = g.A or g.p.x5 = g.E) and g.p.x6 = g.G)) or (g.p.x0 = g.B or g.p.x0 = g.D) and (g.p.x1 = g.A and g.p.x2 = g.B) and (g.p.x3 = g.D and (g.p.x4 = g.A or g.p.x4 = g.B) and ((g.p.x5 = g.B or g.p.x5 = g.D) and g.p.x6 = g.G)))) [backward reach with edge: (event: g.e1) (guard: g.p.x0 = g.A) (assignments: g.p.x0 := g.B), restricted to current/previous controlled-behavior predicate: (g.p.x0 = g.A or g.p.x0 = g.E) and (g.p.x1 = g.A and g.p.x2 = g.B) and (g.p.x3 = g.D and (g.p.x4 = g.A or g.p.x4 = g.B) and ((g.p.x5 = g.A or g.p.x5 = g.E) and g.p.x6 = g.G)) or ((g.p.x0 = g.A or g.p.x0 = g.E) and (g.p.x1 = g.A and g.p.x2 = g.B) and (g.p.x3 = g.D and (g.p.x4 = g.A or g.p.x4 = g.B) and ((g.p.x5 = g.B or g.p.x5 = g.D) and g.p.x6 = g.G)) or g.p.x0 = g.C and (g.p.x1 = g.A and g.p.x2 = g.B) and (g.p.x3 = g.D and (g.p.x4 = g.A or g.p.x4 = g.B) and ((g.p.x5 = g.A or g.p.x5 = g.E) and g.p.x6 = g.G))) or (g.p.x0 = g.C and (g.p.x1 = g.A and g.p.x2 = g.B) and (g.p.x3 = g.D and (g.p.x4 = g.A or g.p.x4 = g.B) and ((g.p.x5 = g.B or g.p.x5 = g.D) and g.p.x6 = g.G)) or ((g.p.x0 = g.B or g.p.x0 = g.D) and (g.p.x1 = g.A and g.p.x2 = g.B) and (g.p.x3 = g.D and (g.p.x4 = g.A or g.p.x4 = g.B) and ((g.p.x5 = g.A or g.p.x5 = g.E) and g.p.x6 = g.G)) or (g.p.x0 = g.B or g.p.x0 = g.D) and (g.p.x1 = g.A and g.p.x2 = g.B) and (g.p.x3 = g.D and (g.p.x4 = g.A or g.p.x4 = g.B) and ((g.p.x5 = g.B or g.p.x5 = g.D) and g.p.x6 = g.G))))]
Backward reachability: iteration 5.
Backward controlled-behavior: (g.p.x0 = g.A or g.p.x0 = g.E) and (g.p.x1 = g.A and g.p.x2 = g.B) and (g.p.x3 = g.D and (g.p.x4 = g.A or g.p.x4 = g.B) and ((g.p.x5 = g.A or g.p.x5 = g.E) and g.p.x6 = g.G)) or ((g.p.x0 = g.A or g.p.x0 = g.E) and (g.p.x1 = g.A and g.p.x2 = g.B) and (g.p.x3 = g.D and (g.p.x4 = g.A or g.p.x4 = g.B) and ((g.p.x5 = g.B or g.p.x5 = g.D) and g.p.x6 = g.G)) or g.p.x0 = g.C and (g.p.x1 = g.A and g.p.x2 = g.B) and (g.p.x3 = g.D and (g.p.x4 = g.A or g.p.x4 = g.B) and ((g.p.x5 = g.A or g.p.x5 = g.E) and g.p.x6 = g.G))) or (g.p.x0 = g.C and (g.p.x1 = g.A and g.p.x2 = g.B) and (g.p.x3 = g.D and (g.p.x4 = g.A or g.p.x4 = g.B) and ((g.p.x5 = g.B or g.p.x5 = g.D) and g.p.x6 = g.G)) or ((g.p.x0 = g.B or g.p.x0 = g.D) and (g.p.x1 = g.A and g.p.x2 = g.B) and (g.p.x3 = g.D and (g.p.x4 = g.A or g.p.x4 = g.B) and ((g.p.x5 = g.A or g.p.x5 = g.E) and g.p.x6 = g.G)) or (g.p.x0 = g.B or g.p.x0 = g.D) and (g.p.x1 = g.A and g.p.x2 = g.B) and (g.p.x3 = g.D and (g.p.x4 = g.A or g.p.x4 = g.B) and ((g.p.x5 = g.B or g.p.x5 = g.D) and g.p.x6 = g.G)))) [fixed point].

Round 2: computing backward uncontrolled bad-state predicate.
Backward uncontrolled bad-state: <bdd 19n 53p> [current/previous controlled behavior predicate]

Round 2: finished, controlled behavior is stable.

Computing controlled system guards.

Edge (event: g.e1) (guard: g.p.x0 = g.A) (assignments: g.p.x0 := g.B): guard: g.p.x0 = g.A -> g.p.x0 = g.A and (g.p.x1 = g.A and g.p.x2 = g.B) and (g.p.x3 = g.D and (g.p.x4 = g.A or g.p.x4 = g.B) and ((g.p.x5 = g.A or g.p.x5 = g.E) and g.p.x6 = g.G)) or g.p.x0 = g.A and (g.p.x1 = g.A and g.p.x2 = g.B) and (g.p.x3 = g.D and (g.p.x4 = g.A or g.p.x4 = g.B) and ((g.p.x5 = g.B or g.p.x5 = g.D) and g.p.x6 = g.G)).
Edge (event: g.e1) (guard: g.p.x0 = g.B) (assignments: g.p.x0 := g.C): guard: g.p.x0 = g.B -> g.p.x0 = g.B and (g.p.x1 = g.A and g.p.x2 = g.B) and (g.p.x3 = g.D and (g.p.x4 = g.A or g.p.x4 = g.B) and ((g.p.x5 = g.A or g.p.x5 = g.E) and g.p.x6 = g.G)) or g.p.x0 = g.B and (g.p.x1 = g.A and g.p.x2 = g.B) and (g.p.x3 = g.D and (g.p.x4 = g.A or g.p.x4 = g.B) and ((g.p.x5 = g.B or g.p.x5 = g.D) and g.p.x6 = g.G)).
Edge (event: g.e1) (guard: g.p.x0 = g.C) (assignments: g.p.x0 := g.D): guard: g.p.x0 = g.C -> g.p.x0 = g.C and (g.p.x1 = g.A and g.p.x2 = g.B) and (g.p.x3 = g.D and (g.p.x4 = g.A or g.p.x4 = g.B) and ((g.p.x5 = g.A or g.p.x5 = g.E) and g.p.x6 = g.G)) or g.p.x0 = g.C and (g.p.x1 = g.A and g.p.x2 = g.B) and (g.p.x3 = g.D and (g.p.x4 = g.A or g.p.x4 = g.B) and ((g.p.x5 = g.B or g.p.x5 = g.D) and g.p.x6 = g.G)).
Edge (event: g.e1) (guard: g.p.x0 = g.D) (assignments: g.p.x0 := g.E): guard: g.p.x0 = g.D -> g.p.x0 = g.D and (g.p.x1 = g.A and g.p.x2 = g.B) and (g.p.x3 = g.D and (g.p.x4 = g.A or g.p.x4 = g.B) and ((g.p.x5 = g.A or g.p.x5 = g.E) and g.p.x6 = g.G)) or g.p.x0 = g.D and (g.p.x1 = g.A and g.p.x2 = g.B) and (g.p.x3 = g.D and (g.p.x4 = g.A or g.p.x4 = g.B) and ((g.p.x5 = g.B or g.p.x5 = g.D) and g.p.x6 = g.G)).
Edge (event: g.e2) (guard: g.p.x6 = g.G): guard: g.p.x6 = g.G -> (g.p.x0 = g.A or g.p.x0 = g.E) and (g.p.x1 = g.A and g.p.x2 = g.B) and (g.p.x3 = g.D and (g.p.x4 = g.A or g.p.x4 = g.B) and ((g.p.x5 = g.A or g.p.x5 = g.E) and g.p.x6 = g.G)) or ((g.p.x0 = g.A or g.p.x0 = g.E) and (g.p.x1 = g.A and g.p.x2 = g.B) and (g.p.x3 = g.D and (g.p.x4 = g.A or g.p.x4 = g.B) and ((g.p.x5 = g.B or g.p.x5 = g.D) and g.p.x6 = g.G)) or g.p.x0 = g.C and (g.p.x1 = g.A and g.p.x2 = g.B) and (g.p.x3 = g.D and (g.p.x4 = g.A or g.p.x4 = g.B) and ((g.p.x5 = g.A or g.p.x5 = g.E) and g.p.x6 = g.G))) or (g.p.x0 = g.C and (g.p.x1 = g.A and g.p.x2 = g.B) and (g.p.x3 = g.D and (g.p.x4 = g.A or g.p.x4 = g.B) and ((g.p.x5 = g.B or g.p.x5 = g.D) and g.p.x6 = g.G)) or ((g.p.x0 = g.B or g.p.x0 = g.D) and (g.p.x1 = g.A and g.p.x2 = g.B) and (g.p.x3 = g.D and (g.p.x4 = g.A or g.p.x4 = g.B) and ((g.p.x5 = g.A or g.p.x5 = g.E) and g.p.x6 = g.G)) or (g.p.x0 = g.B or g.p.x0 = g.D) and (g.p.x1 = g.A and g.p.x2 = g.B) and (g.p.x3 = g.D and (g.p.x4 = g.A or g.p.x4 = g.B) and ((g.p.x5 = g.B or g.p.x5 = g.D) and g.p.x6 = g.G)))).
Edge (event: g.e2) (guard: g.p.x6 != g.G): guard: g.p.x6 != g.G -> false.

Final synthesis result:
  State: (controlled-behavior: (g.p.x0 = g.A or g.p.x0 = g.E) and (g.p.x1 = g.A and g.p.x2 = g.B) and (g.p.x3 = g.D and (g.p.x4 = g.A or g.p.x4 = g.B) and ((g.p.x5 = g.A or g.p.x5 = g.E) and g.p.x6 = g.G)) or ((g.p.x0 = g.A or g.p.x0 = g.E) and (g.p.x1 = g.A and g.p.x2 = g.B) and (g.p.x3 = g.D and (g.p.x4 = g.A or g.p.x4 = g.B) and ((g.p.x5 = g.B or g.p.x5 = g.D) and g.p.x6 = g.G)) or g.p.x0 = g.C and (g.p.x1 = g.A and g.p.x2 = g.B) and (g.p.x3 = g.D and (g.p.x4 = g.A or g.p.x4 = g.B) and ((g.p.x5 = g.A or g.p.x5 = g.E) and g.p.x6 = g.G))) or (g.p.x0 = g.C and (g.p.x1 = g.A and g.p.x2 = g.B) and (g.p.x3 = g.D and (g.p.x4 = g.A or g.p.x4 = g.B) and ((g.p.x5 = g.B or g.p.x5 = g.D) and g.p.x6 = g.G)) or ((g.p.x0 = g.B or g.p.x0 = g.D) and (g.p.x1 = g.A and g.p.x2 = g.B) and (g.p.x3 = g.D and (g.p.x4 = g.A or g.p.x4 = g.B) and ((g.p.x5 = g.A or g.p.x5 = g.E) and g.p.x6 = g.G)) or (g.p.x0 = g.B or g.p.x0 = g.D) and (g.p.x1 = g.A and g.p.x2 = g.B) and (g.p.x3 = g.D and (g.p.x4 = g.A or g.p.x4 = g.B) and ((g.p.x5 = g.B or g.p.x5 = g.D) and g.p.x6 = g.G)))))
    Edge: (event: g.e1) (guard: g.p.x0 = g.A -> g.p.x0 = g.A and (g.p.x1 = g.A and g.p.x2 = g.B) and (g.p.x3 = g.D and (g.p.x4 = g.A or g.p.x4 = g.B) and ((g.p.x5 = g.A or g.p.x5 = g.E) and g.p.x6 = g.G)) or g.p.x0 = g.A and (g.p.x1 = g.A and g.p.x2 = g.B) and (g.p.x3 = g.D and (g.p.x4 = g.A or g.p.x4 = g.B) and ((g.p.x5 = g.B or g.p.x5 = g.D) and g.p.x6 = g.G))) (assignments: g.p.x0 := g.B)
    Edge: (event: g.e1) (guard: g.p.x0 = g.B -> g.p.x0 = g.B and (g.p.x1 = g.A and g.p.x2 = g.B) and (g.p.x3 = g.D and (g.p.x4 = g.A or g.p.x4 = g.B) and ((g.p.x5 = g.A or g.p.x5 = g.E) and g.p.x6 = g.G)) or g.p.x0 = g.B and (g.p.x1 = g.A and g.p.x2 = g.B) and (g.p.x3 = g.D and (g.p.x4 = g.A or g.p.x4 = g.B) and ((g.p.x5 = g.B or g.p.x5 = g.D) and g.p.x6 = g.G))) (assignments: g.p.x0 := g.C)
    Edge: (event: g.e1) (guard: g.p.x0 = g.C -> g.p.x0 = g.C and (g.p.x1 = g.A and g.p.x2 = g.B) and (g.p.x3 = g.D and (g.p.x4 = g.A or g.p.x4 = g.B) and ((g.p.x5 = g.A or g.p.x5 = g.E) and g.p.x6 = g.G)) or g.p.x0 = g.C and (g.p.x1 = g.A and g.p.x2 = g.B) and (g.p.x3 = g.D and (g.p.x4 = g.A or g.p.x4 = g.B) and ((g.p.x5 = g.B or g.p.x5 = g.D) and g.p.x6 = g.G))) (assignments: g.p.x0 := g.D)
    Edge: (event: g.e1) (guard: g.p.x0 = g.D -> g.p.x0 = g.D and (g.p.x1 = g.A and g.p.x2 = g.B) and (g.p.x3 = g.D and (g.p.x4 = g.A or g.p.x4 = g.B) and ((g.p.x5 = g.A or g.p.x5 = g.E) and g.p.x6 = g.G)) or g.p.x0 = g.D and (g.p.x1 = g.A and g.p.x2 = g.B) and (g.p.x3 = g.D and (g.p.x4 = g.A or g.p.x4 = g.B) and ((g.p.x5 = g.B or g.p.x5 = g.D) and g.p.x6 = g.G))) (assignments: g.p.x0 := g.E)
    Edge: (event: g.e2) (guard: g.p.x6 = g.G -> (g.p.x0 = g.A or g.p.x0 = g.E) and (g.p.x1 = g.A and g.p.x2 = g.B) and (g.p.x3 = g.D and (g.p.x4 = g.A or g.p.x4 = g.B) and ((g.p.x5 = g.A or g.p.x5 = g.E) and g.p.x6 = g.G)) or ((g.p.x0 = g.A or g.p.x0 = g.E) and (g.p.x1 = g.A and g.p.x2 = g.B) and (g.p.x3 = g.D and (g.p.x4 = g.A or g.p.x4 = g.B) and ((g.p.x5 = g.B or g.p.x5 = g.D) and g.p.x6 = g.G)) or g.p.x0 = g.C and (g.p.x1 = g.A and g.p.x2 = g.B) and (g.p.x3 = g.D and (g.p.x4 = g.A or g.p.x4 = g.B) and ((g.p.x5 = g.A or g.p.x5 = g.E) and g.p.x6 = g.G))) or (g.p.x0 = g.C and (g.p.x1 = g.A and g.p.x2 = g.B) and (g.p.x3 = g.D and (g.p.x4 = g.A or g.p.x4 = g.B) and ((g.p.x5 = g.B or g.p.x5 = g.D) and g.p.x6 = g.G)) or ((g.p.x0 = g.B or g.p.x0 = g.D) and (g.p.x1 = g.A and g.p.x2 = g.B) and (g.p.x3 = g.D and (g.p.x4 = g.A or g.p.x4 = g.B) and ((g.p.x5 = g.A or g.p.x5 = g.E) and g.p.x6 = g.G)) or (g.p.x0 = g.B or g.p.x0 = g.D) and (g.p.x1 = g.A and g.p.x2 = g.B) and (g.p.x3 = g.D and (g.p.x4 = g.A or g.p.x4 = g.B) and ((g.p.x5 = g.B or g.p.x5 = g.D) and g.p.x6 = g.G)))))
    Edge: (event: g.e2) (guard: g.p.x6 != g.G -> false)

Controlled system: exactly 40 states.

Initial (synthesis result):            (g.p.x0 = g.A or g.p.x0 = g.E) and (g.p.x1 = g.A and g.p.x2 = g.B) and (g.p.x3 = g.D and (g.p.x4 = g.A or g.p.x4 = g.B) and ((g.p.x5 = g.A or g.p.x5 = g.E) and g.p.x6 = g.G)) or ((g.p.x0 = g.A or g.p.x0 = g.E) and (g.p.x1 = g.A and g.p.x2 = g.B) and (g.p.x3 = g.D and (g.p.x4 = g.A or g.p.x4 = g.B) and ((g.p.x5 = g.B or g.p.x5 = g.D) and g.p.x6 = g.G)) or g.p.x0 = g.C and (g.p.x1 = g.A and g.p.x2 = g.B) and (g.p.x3 = g.D and (g.p.x4 = g.A or g.p.x4 = g.B) and ((g.p.x5 = g.A or g.p.x5 = g.E) and g.p.x6 = g.G))) or (g.p.x0 = g.C and (g.p.x1 = g.A and g.p.x2 = g.B) and (g.p.x3 = g.D and (g.p.x4 = g.A or g.p.x4 = g.B) and ((g.p.x5 = g.B or g.p.x5 = g.D) and g.p.x6 = g.G)) or ((g.p.x0 = g.B or g.p.x0 = g.D) and (g.p.x1 = g.A and g.p.x2 = g.B) and (g.p.x3 = g.D and (g.p.x4 = g.A or g.p.x4 = g.B) and ((g.p.x5 = g.A or g.p.x5 = g.E) and g.p.x6 = g.G)) or (g.p.x0 = g.B or g.p.x0 = g.D) and (g.p.x1 = g.A and g.p.x2 = g.B) and (g.p.x3 = g.D and (g.p.x4 = g.A or g.p.x4 = g.B) and ((g.p.x5 = g.B or g.p.x5 = g.D) and g.p.x6 = g.G))))
Initial (uncontrolled system):         g.p.x0 = g.A and (g.p.x1 = g.A and g.p.x2 = g.B) and (g.p.x3 = g.A and (g.p.x4 = g.A or g.p.x4 = g.E) and ((g.p.x5 = g.A or g.p.x5 = g.E) and g.p.x6 = g.G)) or g.p.x0 = g.A and (g.p.x1 = g.A and g.p.x2 = g.B) and (g.p.x3 = g.A and (g.p.x4 = g.A or g.p.x4 = g.E) and (g.p.x5 = g.C and g.p.x6 = g.G)) or (g.p.x0 = g.A and (g.p.x1 = g.A and g.p.x2 = g.B) and (g.p.x3 = g.A and (g.p.x4 = g.A or g.p.x4 = g.E) and ((g.p.x5 = g.B or g.p.x5 = g.D) and g.p.x6 = g.G)) or g.p.x0 = g.A and (g.p.x1 = g.A and g.p.x2 = g.B) and (g.p.x3 = g.A and g.p.x4 = g.C and ((g.p.x5 = g.A or g.p.x5 = g.E) and g.p.x6 = g.G))) or (g.p.x0 = g.A and (g.p.x1 = g.A and g.p.x2 = g.B) and (g.p.x3 = g.A and g.p.x4 = g.C and (g.p.x5 = g.C and g.p.x6 = g.G)) or g.p.x0 = g.A and (g.p.x1 = g.A and g.p.x2 = g.B) and (g.p.x3 = g.A and g.p.x4 = g.C and ((g.p.x5 = g.B or g.p.x5 = g.D) and g.p.x6 = g.G)) or (g.p.x0 = g.A and (g.p.x1 = g.A and g.p.x2 = g.B) and (g.p.x3 = g.A and (g.p.x4 = g.B or g.p.x4 = g.D) and ((g.p.x5 = g.A or g.p.x5 = g.E) and g.p.x6 = g.G)) or (g.p.x0 = g.A and (g.p.x1 = g.A and g.p.x2 = g.B) and (g.p.x3 = g.A and (g.p.x4 = g.B or g.p.x4 = g.D) and (g.p.x5 = g.C and g.p.x6 = g.G)) or g.p.x0 = g.A and (g.p.x1 = g.A and g.p.x2 = g.B) and (g.p.x3 = g.A and (g.p.x4 = g.B or g.p.x4 = g.D) and ((g.p.x5 = g.B or g.p.x5 = g.D) and g.p.x6 = g.G))))) or (g.p.x0 = g.A and (g.p.x1 = g.A and g.p.x2 = g.B) and ((g.p.x3 = g.B or g.p.x3 = g.D) and (g.p.x4 = g.A or g.p.x4 = g.E) and ((g.p.x5 = g.A or g.p.x5 = g.E) and g.p.x6 = g.G)) or g.p.x0 = g.A and (g.p.x1 = g.A and g.p.x2 = g.B) and ((g.p.x3 = g.B or g.p.x3 = g.D) and (g.p.x4 = g.A or g.p.x4 = g.E) and (g.p.x5 = g.C and g.p.x6 = g.G)) or (g.p.x0 = g.A and (g.p.x1 = g.A and g.p.x2 = g.B) and ((g.p.x3 = g.B or g.p.x3 = g.D) and (g.p.x4 = g.A or g.p.x4 = g.E) and ((g.p.x5 = g.B or g.p.x5 = g.D) and g.p.x6 = g.G)) or g.p.x0 = g.A and (g.p.x1 = g.A and g.p.x2 = g.B) and ((g.p.x3 = g.B or g.p.x3 = g.D) and g.p.x4 = g.C and ((g.p.x5 = g.A or g.p.x5 = g.E) and g.p.x6 = g.G))) or (g.p.x0 = g.A and (g.p.x1 = g.A and g.p.x2 = g.B) and ((g.p.x3 = g.B or g.p.x3 = g.D) and g.p.x4 = g.C and (g.p.x5 = g.C and g.p.x6 = g.G)) or g.p.x0 = g.A and (g.p.x1 = g.A and g.p.x2 = g.B) and ((g.p.x3 = g.B or g.p.x3 = g.D) and g.p.x4 = g.C and ((g.p.x5 = g.B or g.p.x5 = g.D) and g.p.x6 = g.G)) or (g.p.x0 = g.A and (g.p.x1 = g.A and g.p.x2 = g.B) and ((g.p.x3 = g.B or g.p.x3 = g.D) and (g.p.x4 = g.B or g.p.x4 = g.D) and ((g.p.x5 = g.A or g.p.x5 = g.E) and g.p.x6 = g.G)) or (g.p.x0 = g.A and (g.p.x1 = g.A and g.p.x2 = g.B) and ((g.p.x3 = g.B or g.p.x3 = g.D) and (g.p.x4 = g.B or g.p.x4 = g.D) and (g.p.x5 = g.C and g.p.x6 = g.G)) or g.p.x0 = g.A and (g.p.x1 = g.A and g.p.x2 = g.B) and ((g.p.x3 = g.B or g.p.x3 = g.D) and (g.p.x4 = g.B or g.p.x4 = g.D) and ((g.p.x5 = g.B or g.p.x5 = g.D) and g.p.x6 = g.G))))))
Initial (controlled system):           g.p.x0 = g.A and (g.p.x1 = g.A and g.p.x2 = g.B) and (g.p.x3 = g.D and (g.p.x4 = g.A or g.p.x4 = g.B) and ((g.p.x5 = g.A or g.p.x5 = g.E) and g.p.x6 = g.G)) or g.p.x0 = g.A and (g.p.x1 = g.A and g.p.x2 = g.B) and (g.p.x3 = g.D and (g.p.x4 = g.A or g.p.x4 = g.B) and ((g.p.x5 = g.B or g.p.x5 = g.D) and g.p.x6 = g.G))
Initial (removed by supervisor):       <bdd 29n 29p>
Initial (added by supervisor):         <bdd 29n 102p>

Simplification of controlled system initialization predicate under the assumption of the uncontrolled system initialization predicates:
  Initial: g.p.x0 = g.A and (g.p.x1 = g.A and g.p.x2 = g.B) and (g.p.x3 = g.D and (g.p.x4 = g.A or g.p.x4 = g.B) and ((g.p.x5 = g.A or g.p.x5 = g.E) and g.p.x6 = g.G)) or g.p.x0 = g.A and (g.p.x1 = g.A and g.p.x2 = g.B) and (g.p.x3 = g.D and (g.p.x4 = g.A or g.p.x4 = g.B) and ((g.p.x5 = g.B or g.p.x5 = g.D) and g.p.x6 = g.G)) -> g.p.x3 = g.D and ((g.p.x4 = g.A or g.p.x4 = g.B) and (g.p.x5 = g.A or g.p.x5 = g.E)) or g.p.x3 = g.D and ((g.p.x4 = g.A or g.p.x4 = g.B) and (g.p.x5 = g.B or g.p.x5 = g.D)) [assume g.p.x0 = g.A and (g.p.x1 = g.A and g.p.x2 = g.B) and (g.p.x3 = g.A and (g.p.x4 = g.A or g.p.x4 = g.E) and ((g.p.x5 = g.A or g.p.x5 = g.E) and g.p.x6 = g.G)) or g.p.x0 = g.A and (g.p.x1 = g.A and g.p.x2 = g.B) and (g.p.x3 = g.A and (g.p.x4 = g.A or g.p.x4 = g.E) and (g.p.x5 = g.C and g.p.x6 = g.G)) or (g.p.x0 = g.A and (g.p.x1 = g.A and g.p.x2 = g.B) and (g.p.x3 = g.A and (g.p.x4 = g.A or g.p.x4 = g.E) and ((g.p.x5 = g.B or g.p.x5 = g.D) and g.p.x6 = g.G)) or g.p.x0 = g.A and (g.p.x1 = g.A and g.p.x2 = g.B) and (g.p.x3 = g.A and g.p.x4 = g.C and ((g.p.x5 = g.A or g.p.x5 = g.E) and g.p.x6 = g.G))) or (g.p.x0 = g.A and (g.p.x1 = g.A and g.p.x2 = g.B) and (g.p.x3 = g.A and g.p.x4 = g.C and (g.p.x5 = g.C and g.p.x6 = g.G)) or g.p.x0 = g.A and (g.p.x1 = g.A and g.p.x2 = g.B) and (g.p.x3 = g.A and g.p.x4 = g.C and ((g.p.x5 = g.B or g.p.x5 = g.D) and g.p.x6 = g.G)) or (g.p.x0 = g.A and (g.p.x1 = g.A and g.p.x2 = g.B) and (g.p.x3 = g.A and (g.p.x4 = g.B or g.p.x4 = g.D) and ((g.p.x5 = g.A or g.p.x5 = g.E) and g.p.x6 = g.G)) or (g.p.x0 = g.A and (g.p.x1 = g.A and g.p.x2 = g.B) and (g.p.x3 = g.A and (g.p.x4 = g.B or g.p.x4 = g.D) and (g.p.x5 = g.C and g.p.x6 = g.G)) or g.p.x0 = g.A and (g.p.x1 = g.A and g.p.x2 = g.B) and (g.p.x3 = g.A and (g.p.x4 = g.B or g.p.x4 = g.D) and ((g.p.x5 = g.B or g.p.x5 = g.D) and g.p.x6 = g.G))))) or (g.p.x0 = g.A and (g.p.x1 = g.A and g.p.x2 = g.B) and ((g.p.x3 = g.B or g.p.x3 = g.D) and (g.p.x4 = g.A or g.p.x4 = g.E) and ((g.p.x5 = g.A or g.p.x5 = g.E) and g.p.x6 = g.G)) or g.p.x0 = g.A and (g.p.x1 = g.A and g.p.x2 = g.B) and ((g.p.x3 = g.B or g.p.x3 = g.D) and (g.p.x4 = g.A or g.p.x4 = g.E) and (g.p.x5 = g.C and g.p.x6 = g.G)) or (g.p.x0 = g.A and (g.p.x1 = g.A and g.p.x2 = g.B) and ((g.p.x3 = g.B or g.p.x3 = g.D) and (g.p.x4 = g.A or g.p.x4 = g.E) and ((g.p.x5 = g.B or g.p.x5 = g.D) and g.p.x6 = g.G)) or g.p.x0 = g.A and (g.p.x1 = g.A and g.p.x2 = g.B) and ((g.p.x3 = g.B or g.p.x3 = g.D) and g.p.x4 = g.C and ((g.p.x5 = g.A or g.p.x5 = g.E) and g.p.x6 = g.G))) or (g.p.x0 = g.A and (g.p.x1 = g.A and g.p.x2 = g.B) and ((g.p.x3 = g.B or g.p.x3 = g.D) and g.p.x4 = g.C and (g.p.x5 = g.C and g.p.x6 = g.G)) or g.p.x0 = g.A and (g.p.x1 = g.A and g.p.x2 = g.B) and ((g.p.x3 = g.B or g.p.x3 = g.D) and g.p.x4 = g.C and ((g.p.x5 = g.B or g.p.x5 = g.D) and g.p.x6 = g.G)) or (g.p.x0 = g.A and (g.p.x1 = g.A and g.p.x2 = g.B) and ((g.p.x3 = g.B or g.p.x3 = g.D) and (g.p.x4 = g.B or g.p.x4 = g.D) and ((g.p.x5 = g.A or g.p.x5 = g.E) and g.p.x6 = g.G)) or (g.p.x0 = g.A and (g.p.x1 = g.A and g.p.x2 = g.B) and ((g.p.x3 = g.B or g.p.x3 = g.D) and (g.p.x4 = g.B or g.p.x4 = g.D) and (g.p.x5 = g.C and g.p.x6 = g.G)) or g.p.x0 = g.A and (g.p.x1 = g.A and g.p.x2 = g.B) and ((g.p.x3 = g.B or g.p.x3 = g.D) and (g.p.x4 = g.B or g.p.x4 = g.D) and ((g.p.x5 = g.B or g.p.x5 = g.D) and g.p.x6 = g.G))))))].

Simplification of controlled system under the assumption of the plants:
  Event g.e1: guard: g.p.x0 != g.E and (g.p.x1 = g.A and g.p.x2 = g.B) and (g.p.x3 = g.D and (g.p.x4 = g.A or g.p.x4 = g.B) and ((g.p.x5 = g.A or g.p.x5 = g.E) and g.p.x6 = g.G)) or g.p.x0 != g.E and (g.p.x1 = g.A and g.p.x2 = g.B) and (g.p.x3 = g.D and (g.p.x4 = g.A or g.p.x4 = g.B) and ((g.p.x5 = g.B or g.p.x5 = g.D) and g.p.x6 = g.G)) -> g.p.x1 = g.A and (g.p.x2 = g.B and g.p.x3 = g.D) and ((g.p.x4 = g.A or g.p.x4 = g.B) and ((g.p.x5 = g.A or g.p.x5 = g.E) and g.p.x6 = g.G)) or g.p.x1 = g.A and (g.p.x2 = g.B and g.p.x3 = g.D) and ((g.p.x4 = g.A or g.p.x4 = g.B) and ((g.p.x5 = g.B or g.p.x5 = g.D) and g.p.x6 = g.G)) [assume g.p.x0 != g.E].

Constructing output CIF specification.
Writing output CIF file "datasynth/enums.ctrlsys.real.cif".
