Reading CIF file "datasynth/reachability2_workset_off.cif".
Preprocessing CIF specification.
Converting CIF specification to internal format.

CIF variables and location pointers:
  Nr     Kind               Type       Name  Group  BDD vars  CIF values  BDD values  Values used
  -----  -----------------  ---------  ----  -----  --------  ----------  ----------  -----------
  1      location pointer   n/a        p     0      1 * 2     2 * 2       2 * 2       100%
  2      discrete variable  int[0..5]  p.x   1      3 * 2     6 * 2       8 * 2       75%
  -----  -----------------  ---------  ----  -----  --------  ----------  ----------  -----------
  Total                                      2      8         16          20          80%

Applying variable ordering:
  Applying 4 orderers, sequentially:
    Applying model variable order:
      Effect: both

    Applying DCSH algorithm:
      Metric: wes
      Relations: legacy
      Effect: var-order
      Number of hyper-edges: 9

      Applying Weighted Cuthill-McKee algorithm:
        Node finder: george-liu
        Relations: legacy
        Effect: var-order
        Number of graph edges: 1

        Total span:   3 (total)   0.33 (avg/edge) / WES:   0.666667 (total)   0.074074 (avg/edge) [before]
        Total span:   3 (total)   0.33 (avg/edge) / WES:   0.666667 (total)   0.074074 (avg/edge) [after]

      Found new best variable order.

      Applying Sloan algorithm:
        Relations: legacy
        Effect: var-order
        Number of graph edges: 1

        Total span:   3 (total)   0.33 (avg/edge) / WES:   0.666667 (total)   0.074074 (avg/edge) [before]
        Total span:   3 (total)   0.33 (avg/edge) / WES:   0.666667 (total)   0.074074 (avg/edge) [after]

      Applying 2 orderers, sequentially:
        Applying Weighted Cuthill-McKee algorithm:
          Node finder: george-liu
          Relations: legacy
          Effect: var-order
          Number of graph edges: 1

          Total span:   3 (total)   0.33 (avg/edge) / WES:   0.666667 (total)   0.074074 (avg/edge) [before]
          Total span:   3 (total)   0.33 (avg/edge) / WES:   0.666667 (total)   0.074074 (avg/edge) [after]

        Reversing the variable order:
          Relations: legacy
          Effect: var-order
          Number of hyper-edges: 9

          Total span:   3 (total)   0.33 (avg/edge) / WES:   0.666667 (total)   0.074074 (avg/edge) [before]
          Total span:   3 (total)   0.33 (avg/edge) / WES:   0.666667 (total)   0.074074 (avg/edge) [reversed]

      Found new best variable order.

      Applying 2 orderers, sequentially:
        Applying Sloan algorithm:
          Relations: legacy
          Effect: var-order
          Number of graph edges: 1

          Total span:   3 (total)   0.33 (avg/edge) / WES:   0.666667 (total)   0.074074 (avg/edge) [before]
          Total span:   3 (total)   0.33 (avg/edge) / WES:   0.666667 (total)   0.074074 (avg/edge) [after]

        Reversing the variable order:
          Relations: legacy
          Effect: var-order
          Number of hyper-edges: 9

          Total span:   3 (total)   0.33 (avg/edge) / WES:   0.666667 (total)   0.074074 (avg/edge) [before]
          Total span:   3 (total)   0.33 (avg/edge) / WES:   0.666667 (total)   0.074074 (avg/edge) [reversed]

    Applying FORCE algorithm:
      Metric: total-span
      Relations: linearized
      Effect: var-order
      Number of hyper-edges: 4
      Maximum number of iterations: 10

      Total span:   4 (total)   1.00 (avg/edge) / WES:   1.000000 (total)   0.250000 (avg/edge) [before]
      Total span:   4 (total)   1.00 (avg/edge) / WES:   1.000000 (total)   0.250000 (avg/edge) [iteration 1]
      Total span:   4 (total)   1.00 (avg/edge) / WES:   1.000000 (total)   0.250000 (avg/edge) [after]

    Applying sliding window algorithm:
      Size: 4
      Metric: total-span
      Relations: linearized
      Effect: var-order
      Number of hyper-edges: 4
      Window length: 2

      Total span:   4 (total)   1.00 (avg/edge) / WES:   1.000000 (total)   0.250000 (avg/edge) [before]
      Total span:   4 (total)   1.00 (avg/edge) / WES:   1.000000 (total)   0.250000 (avg/edge) [after]

Variable order changed.

CIF variables and location pointers:
  Nr     Kind               Type       Name  Group  BDD vars  CIF values  BDD values  Values used
  -----  -----------------  ---------  ----  -----  --------  ----------  ----------  -----------
  1      discrete variable  int[0..5]  p.x   0      3 * 2     6 * 2       8 * 2       75%
  2      location pointer   n/a        p     1      1 * 2     2 * 2       2 * 2       100%
  -----  -----------------  ---------  ----  -----  --------  ----------  ----------  -----------
  Total                                      2      8         16          20          80%

Starting data-based synthesis.

Invariant (components state plant inv):      true
Invariant (locations state plant invariant): true
Invariant (system state plant invariant):    true

Invariant (components state req invariant):  true
Invariant (locations state req invariant):   true
Invariant (system state req invariant):      true

Initial   (discrete variable 0):             p.x = 0
Initial   (discrete variables):              p.x = 0
Initial   (components init predicate):       true
Initial   (aut/locs init predicate):         p.increase
Initial   (auts/locs init predicate):        p.increase
Initial   (uncontrolled system):             p.x = 0 and p.increase
Initial   (system, combined init/plant inv): p.x = 0 and p.increase
Initial   (system, combined init/state inv): p.x = 0 and p.increase

Marked    (components marker predicate):     true
Marked    (aut/locs marker predicate):       p.increase
Marked    (auts/locs marker predicate):      p.increase
Marked    (uncontrolled system):             p.increase
Marked    (system, combined mark/plant inv): p.increase
Marked    (system, combined mark/state inv): p.increase

State/event exclusion plants:
  None

State/event exclusion requirements:
  None

Uncontrolled system:
  State: (controlled-behavior: ?)
    Edge: (event: p.u_inc) (guard: (p.x = 0 or p.x = 4) and p.increase or (p.x = 2 and p.increase or (p.x = 1 or p.x = 3) and p.increase)) (assignments: p.x := p.x + 1)
    Edge: (event: p.u_switch) (guard: p.x = 0 and p.decrease or p.x = 5 and p.increase) (assignments: p := p.decrease / p := p.increase)
    Edge: (event: p.u_dec) (guard: p.x = 4 and p.decrease or (p.x = 2 and p.decrease or (p.x = 1 or (p.x = 3 or p.x = 5)) and p.decrease)) (assignments: p.x := p.x - 1)

Restricting behavior using state/event exclusion plants.

Initialized controlled-behavior predicate: true.
Initialized controlled-initialization predicate: p.x = 0 and p.increase.

Restricting behavior using state requirements.

Extending controlled-behavior predicate using variable ranges.

Controlled behavior: true -> true [range: true, variable: discrete variable "p.x" of type "int[0..5]" (group: 0, domain: 0+1, BDD variables: 3, CIF/BDD values: 6/8)].

Extended controlled-behavior predicate using variable ranges: true.

Restricting behavior using state/event exclusion requirements.

Round 1: started.

Round 1: computing backward controlled-behavior predicate.
Backward controlled-behavior: p.increase [marker predicate]
Backward controlled-behavior: p.increase -> (p.x = 2 or (p.x = 3 or p.increase)) and (not(p.x = 2 or p.x = 3) or p.increase) [restricted to current/previous controlled-behavior predicate: true]
Backward reachability: iteration 1.
Backward controlled-behavior: (p.x = 2 or (p.x = 3 or p.increase)) and (not(p.x = 2 or p.x = 3) or p.increase) -> (p.x != 4 or p.increase) and (p.x != 2 or p.increase) and ((p.x = 0 or (2 <= p.x and p.x <= 4 or p.increase)) and (p.x != 3 or p.increase)) [backward reach with edge: (event: p.u_switch) (guard: p.x = 0 and p.decrease or p.x = 5 and p.increase) (assignments: p := p.decrease / p := p.increase), restricted to current/previous controlled-behavior predicate: true]
Backward controlled-behavior: (p.x != 4 or p.increase) and (p.x != 2 or p.increase) and ((p.x = 0 or (2 <= p.x and p.x <= 4 or p.increase)) and (p.x != 3 or p.increase)) -> (0 <= p.x and p.x <= 3 or p.increase) and (not(p.x = 2 or p.x = 3) or p.increase) [backward reach with edge: (event: p.u_dec) (guard: p.x = 4 and p.decrease or (p.x = 2 and p.decrease or (p.x = 1 or (p.x = 3 or p.x = 5)) and p.decrease)) (assignments: p.x := p.x - 1), restricted to current/previous controlled-behavior predicate: true]
Backward reachability: iteration 2.
Backward controlled-behavior: (0 <= p.x and p.x <= 3 or p.increase) and (not(p.x = 2 or p.x = 3) or p.increase) -> (p.x != 4 or p.increase) and ((p.x != 5 or p.increase) and (p.x != 3 or p.increase)) [backward reach with edge: (event: p.u_dec) (guard: p.x = 4 and p.decrease or (p.x = 2 and p.decrease or (p.x = 1 or (p.x = 3 or p.x = 5)) and p.decrease)) (assignments: p.x := p.x - 1), restricted to current/previous controlled-behavior predicate: true]
Backward reachability: iteration 3.
Backward controlled-behavior: (p.x != 4 or p.increase) and ((p.x != 5 or p.increase) and (p.x != 3 or p.increase)) -> 0 <= p.x and p.x <= 3 or p.increase [backward reach with edge: (event: p.u_dec) (guard: p.x = 4 and p.decrease or (p.x = 2 and p.decrease or (p.x = 1 or (p.x = 3 or p.x = 5)) and p.decrease)) (assignments: p.x := p.x - 1), restricted to current/previous controlled-behavior predicate: true]
Backward reachability: iteration 4.
Backward controlled-behavior: 0 <= p.x and p.x <= 3 or p.increase -> p.x != 5 or p.increase [backward reach with edge: (event: p.u_dec) (guard: p.x = 4 and p.decrease or (p.x = 2 and p.decrease or (p.x = 1 or (p.x = 3 or p.x = 5)) and p.decrease)) (assignments: p.x := p.x - 1), restricted to current/previous controlled-behavior predicate: true]
Backward reachability: iteration 5.
Backward controlled-behavior: p.x != 5 or p.increase -> true [backward reach with edge: (event: p.u_dec) (guard: p.x = 4 and p.decrease or (p.x = 2 and p.decrease or (p.x = 1 or (p.x = 3 or p.x = 5)) and p.decrease)) (assignments: p.x := p.x - 1), restricted to current/previous controlled-behavior predicate: true]
Backward reachability: iteration 6.
Backward controlled-behavior: true [fixed point].

Round 1: computing backward uncontrolled bad-state predicate.
Backward uncontrolled bad-state: false [current/previous controlled behavior predicate]
Backward reachability: iteration 1.

Round 1: computing forward controlled-behavior predicate.
Forward controlled-behavior: p.x = 0 and p.increase [initialization predicate]
Forward reachability: iteration 1.
Forward controlled-behavior: p.x = 0 and p.increase -> (p.x = 0 or p.x = 1) and p.increase [forward reach with edge: (event: p.u_inc) (guard: (p.x = 0 or p.x = 4) and p.increase or (p.x = 2 and p.increase or (p.x = 1 or p.x = 3) and p.increase)) (assignments: p.x := p.x + 1), restricted to current/previous controlled-behavior predicate: true]
Forward reachability: iteration 2.
Forward controlled-behavior: (p.x = 0 or p.x = 1) and p.increase -> (p.x = 0 or p.x = 2) and p.increase or p.x = 1 and p.increase [forward reach with edge: (event: p.u_inc) (guard: (p.x = 0 or p.x = 4) and p.increase or (p.x = 2 and p.increase or (p.x = 1 or p.x = 3) and p.increase)) (assignments: p.x := p.x + 1), restricted to current/previous controlled-behavior predicate: true]
Forward reachability: iteration 3.
Forward controlled-behavior: (p.x = 0 or p.x = 2) and p.increase or p.x = 1 and p.increase -> 0 <= p.x and (p.x <= 3 and p.increase) [forward reach with edge: (event: p.u_inc) (guard: (p.x = 0 or p.x = 4) and p.increase or (p.x = 2 and p.increase or (p.x = 1 or p.x = 3) and p.increase)) (assignments: p.x := p.x + 1), restricted to current/previous controlled-behavior predicate: true]
Forward reachability: iteration 4.
Forward controlled-behavior: 0 <= p.x and (p.x <= 3 and p.increase) -> (p.x = 0 or p.x = 4) and p.increase or (p.x = 2 and p.increase or (p.x = 1 or p.x = 3) and p.increase) [forward reach with edge: (event: p.u_inc) (guard: (p.x = 0 or p.x = 4) and p.increase or (p.x = 2 and p.increase or (p.x = 1 or p.x = 3) and p.increase)) (assignments: p.x := p.x + 1), restricted to current/previous controlled-behavior predicate: true]
Forward reachability: iteration 5.
Forward controlled-behavior: (p.x = 0 or p.x = 4) and p.increase or (p.x = 2 and p.increase or (p.x = 1 or p.x = 3) and p.increase) -> (p.x = 2 or (p.x = 3 or p.increase)) and (not(p.x = 2 or p.x = 3) or p.increase) [forward reach with edge: (event: p.u_inc) (guard: (p.x = 0 or p.x = 4) and p.increase or (p.x = 2 and p.increase or (p.x = 1 or p.x = 3) and p.increase)) (assignments: p.x := p.x + 1), restricted to current/previous controlled-behavior predicate: true]
Forward controlled-behavior: (p.x = 2 or (p.x = 3 or p.increase)) and (not(p.x = 2 or p.x = 3) or p.increase) -> (1 <= p.x and p.x <= 3 or (p.x = 5 or p.increase)) and (p.x != 2 or p.increase) and ((p.x != 1 or p.increase) and (p.x != 3 or p.increase)) [forward reach with edge: (event: p.u_switch) (guard: p.x = 0 and p.decrease or p.x = 5 and p.increase) (assignments: p := p.decrease / p := p.increase), restricted to current/previous controlled-behavior predicate: true]
Forward controlled-behavior: (1 <= p.x and p.x <= 3 or (p.x = 5 or p.increase)) and (p.x != 2 or p.increase) and ((p.x != 1 or p.increase) and (p.x != 3 or p.increase)) -> (2 <= p.x and p.x <= 5 or p.increase) and (not(p.x = 2 or p.x = 3) or p.increase) [forward reach with edge: (event: p.u_dec) (guard: p.x = 4 and p.decrease or (p.x = 2 and p.decrease or (p.x = 1 or (p.x = 3 or p.x = 5)) and p.decrease)) (assignments: p.x := p.x - 1), restricted to current/previous controlled-behavior predicate: true]
Forward reachability: iteration 6.
Forward controlled-behavior: (2 <= p.x and p.x <= 5 or p.increase) and (not(p.x = 2 or p.x = 3) or p.increase) -> (p.x != 0 or p.increase) and ((p.x != 2 or p.increase) and (p.x != 1 or p.increase)) [forward reach with edge: (event: p.u_dec) (guard: p.x = 4 and p.decrease or (p.x = 2 and p.decrease or (p.x = 1 or (p.x = 3 or p.x = 5)) and p.decrease)) (assignments: p.x := p.x - 1), restricted to current/previous controlled-behavior predicate: true]
Forward reachability: iteration 7.
Forward controlled-behavior: (p.x != 0 or p.increase) and ((p.x != 2 or p.increase) and (p.x != 1 or p.increase)) -> 2 <= p.x and p.x <= 5 or p.increase [forward reach with edge: (event: p.u_dec) (guard: p.x = 4 and p.decrease or (p.x = 2 and p.decrease or (p.x = 1 or (p.x = 3 or p.x = 5)) and p.decrease)) (assignments: p.x := p.x - 1), restricted to current/previous controlled-behavior predicate: true]
Forward reachability: iteration 8.
Forward controlled-behavior: 2 <= p.x and p.x <= 5 or p.increase -> p.x != 0 or p.increase [forward reach with edge: (event: p.u_dec) (guard: p.x = 4 and p.decrease or (p.x = 2 and p.decrease or (p.x = 1 or (p.x = 3 or p.x = 5)) and p.decrease)) (assignments: p.x := p.x - 1), restricted to current/previous controlled-behavior predicate: true]
Forward reachability: iteration 9.
Forward controlled-behavior: p.x != 0 or p.increase -> true [forward reach with edge: (event: p.u_dec) (guard: p.x = 4 and p.decrease or (p.x = 2 and p.decrease or (p.x = 1 or (p.x = 3 or p.x = 5)) and p.decrease)) (assignments: p.x := p.x - 1), restricted to current/previous controlled-behavior predicate: true]
Forward reachability: iteration 10.
Forward controlled-behavior: true [fixed point].

Round 1: finished, controlled behavior is stable.

Computing controlled system guards.

Final synthesis result:
  State: (controlled-behavior: true)
    Edge: (event: p.u_inc) (guard: (p.x = 0 or p.x = 4) and p.increase or (p.x = 2 and p.increase or (p.x = 1 or p.x = 3) and p.increase)) (assignments: p.x := p.x + 1)
    Edge: (event: p.u_switch) (guard: p.x = 0 and p.decrease or p.x = 5 and p.increase) (assignments: p := p.decrease / p := p.increase)
    Edge: (event: p.u_dec) (guard: p.x = 4 and p.decrease or (p.x = 2 and p.decrease or (p.x = 1 or (p.x = 3 or p.x = 5)) and p.decrease)) (assignments: p.x := p.x - 1)

Controlled system: exactly 12 states.

Initial (synthesis result):            true
Initial (uncontrolled system):         p.x = 0 and p.increase
Initial (controlled system):           p.x = 0 and p.increase
Initial (removed by supervisor):       false
Initial (added by supervisor):         true

Constructing output CIF specification.
Writing output CIF file "datasynth/reachability2_workset_off.ctrlsys.real.cif".
