Loading CIF specification "controllercheck/finite_response/has_finite_response_auts.cif"...
Preparing for the checks...
Analyzing automaton "Actuator"...
    Initializing the automaton data for event "Actuator.c_on"...
    Initializing the automaton data for event "Actuator.c_off"...
    Processing edges from location "Off" of automaton "Actuator"...
    Processing edges from location "On" of automaton "Actuator"...
    Updating global guards and updates for event "Actuator.c_on"...
    Updating global guards and updates for event "Actuator.c_off"...
Analyzing automaton "Sensor"...
Analyzing automaton "req"...
    Initializing the automaton data for event "Actuator.c_off"...
    Initializing the automaton data for event "Actuator.c_on"...
    Processing edges from location "Off" of automaton "req"...
    Processing edges from location "On" of automaton "req"...
    Updating global guards and updates for event "Actuator.c_off"...
    Updating global guards and updates for event "Actuator.c_on"...

Checking for finite response...

Iteration 1.
    The following events have been encountered in a controllable-event loop of automaton Actuator:
        (Actuator.c_on Actuator.c_off), which is controllable unconnectable.

Checking for confluence...

Mutual exclusive event pairs:
    (Actuator.c_off, Actuator.c_on)

CONCLUSION:
    [OK] The specification has finite response.
    [OK] The specification has confluence.
