Loading CIF specification "controllercheck/finite_response/input_variable.cif"...
Preparing for the checks...
Analyzing automaton "Actuator"...
    Initializing the automaton data for event "Actuator.c_on"...
    Initializing the automaton data for event "Actuator.c_off"...
    Processing edges from location "Off" of automaton "Actuator"...
    Processing edges from location "On" of automaton "Actuator"...
    Updating global guards and updates for event "Actuator.c_on"...
    Updating global guards and updates for event "Actuator.c_off"...
Analyzing automaton "RequirementStateEvtExcls"...
    Initializing the automaton data for event "Actuator.c_on"...
    Initializing the automaton data for event "Actuator.c_off"...
    Processing edges from the location of automaton "RequirementStateEvtExcls"...
    Updating global guards and updates for event "Actuator.c_on"...
    Updating global guards and updates for event "Actuator.c_off"...

Checking for finite response...

Iteration 1.
    The following events have been encountered in a controllable-event loop of automaton Actuator:
        (Actuator.c_on Actuator.c_off), which is controllable unconnectable.

CONCLUSION:
    [OK] The specification has finite response.
    Confluence checking was disabled, confluence property is unknown.
