Loading CIF specification "controllercheck/finite_response/self_loop.cif"...
Preparing for the checks...
Analyzing automaton "test"...
    Initializing the automaton data for event "test.c"...
    Processing edges from the location of automaton "test"...
    Updating global guards and updates for event "test.c"...

Checking for finite response...

Iteration 1.

Checking for confluence...

CONCLUSION:
    [OK] The specification has finite response.
    [OK] The specification has confluence.
