Loading CIF specification "controllercheck/confluence/mutual_exclusive2.cif"...
Preparing for the checks...
Analyzing automaton "DifferentConditions"...
    Initializing the automaton data for event "DifferentConditions.a"...
    Initializing the automaton data for event "DifferentConditions.b"...
    Processing edges from location "p" of automaton "DifferentConditions"...
    Processing edges from location "q" of automaton "DifferentConditions"...
    Updating global guards and updates for event "DifferentConditions.a"...
    Updating global guards and updates for event "DifferentConditions.b"...

Checking for finite response...

Iteration 1.

Checking for confluence...

Mutual exclusive event pairs:
    (DifferentConditions.a, DifferentConditions.b)

CONCLUSION:
    [OK] The specification has finite response.
    [OK] The specification has confluence.
