Loading CIF specification "controllercheck/confluence/not_confluent.cif"...
Preparing for the checks...
Analyzing automaton "SingleAut"...
    Initializing the automaton data for event "SingleAut.a"...
    Initializing the automaton data for event "SingleAut.b"...
    Processing edges from location "p" of automaton "SingleAut"...
    Processing edges from location "q" of automaton "SingleAut"...
    Updating global guards and updates for event "SingleAut.a"...
    Updating global guards and updates for event "SingleAut.b"...

Checking for finite response...

Iteration 1.

Checking for confluence...

CONCLUSION:
    [OK] The specification has finite response.

    [ERROR] The specification may NOT have confluence.
    
        Confluence of the following event pair could not be decided:
            (SingleAut.a, SingleAut.b)
