Loading CIF specification "controllercheck/confluence/reversible1.cif"...
Preparing for the checks...
Analyzing automaton "A"...
    Initializing the automaton data for event "a"...
    Processing edges from location "p" of automaton "A"...
    Processing edges from location "q" of automaton "A"...
    Updating global guards and updates for event "a"...
Analyzing automaton "B"...
    Initializing the automaton data for event "b"...
    Initializing the automaton data for event "c"...
    Processing edges from location "p" of automaton "B"...
    Processing edges from location "q" of automaton "B"...
    Updating global guards and updates for event "b"...
    Updating global guards and updates for event "c"...

Checking for confluence...

Mutual exclusive event pairs:
    (a, c), (b, c)

Reversible event pairs:
    (a, b)

CONCLUSION:
    Finite response checking was disabled, finite response property is unknown.
    [OK] The specification has confluence.
