Loading CIF specification "controllercheck/disabled_evts.cif"...
Preparing for the checks...
Analyzing automaton "A"...
    Initializing the automaton data for event "c_a"...
    Processing edges from location "l1" of automaton "A"...
    Updating global guards and updates for event "c_a"...
Analyzing automaton "B"...
    Initializing the automaton data for event "c_a"...
    Processing edges from location "l2" of automaton "B"...
    Updating global guards and updates for event "c_a"...

Checking for confluence...

CONCLUSION:
    Finite response checking was disabled, finite response property is unknown.
    [OK] The specification has confluence.
