Loading CIF specification "controllercheck/no_controllables.cif"...
Preparing for the checks...

Checking for finite response...

Checking for confluence...

CONCLUSION:
    [OK] The specification has finite response.
    [OK] The specification has confluence.
